"BehaviorSpace results (NetLogo 5.3.1)"
"segregation.nlogo"
"first-experiment"
"04/11/2017 01:16:57:528 -0500"
"min-pxcor","max-pxcor","min-pycor","max-pycor"
"-25","25","-25","25"
"[run number]","density","%-similar-wanted","[step]","percent-similar"
"3","50","0","0","49.42528735632184"
"11","50","0","0","51.24798711755234"
"14","50","0","0","49.86767485822306"
"8","50","0","0","50.12891344383057"
"5","50","0","0","49.0795142969056"
"12","50","0","0","49.050632911392405"
"6","50","0","0","50.710172744721696"
"16","50","0","0","49.80392156862745"
"15","50","0","0","49.37353171495693"
"10","50","0","0","51.72117039586919"
"7","50","0","0","48.77952755905512"
"18","50","0","0","50.4617657923901"
"13","50","0","0","49.62080173347779"
"19","50","0","0","50.797975866095754"
"17","50","0","0","50.43544112078758"
"4","50","0","0","50.72024260803639"
"2","50","0","0","48.20473644003056"
"20","50","0","0","50.860420650095605"
"9","50","0","0","49.07332796132152"
"1","50","0","0","49.67619047619047"
"22","50","5","4","56.596839397280405"
"38","50","5","3","57.38595220854453"
"26","50","5","4","57.007933509633546"
"33","50","5","4","56.119073869900774"
"32","50","5","3","56.829549826856486"
"27","50","5","3","56.81318681318681"
"30","50","5","4","55.40925266903914"
"24","50","5","6","54.90331491712708"
"25","50","5","5","57.68515072571642"
"28","50","5","4","56.36029411764706"
"37","50","5","4","55.72331460674157"
"34","50","5","4","56.729070999646765"
"35","50","5","4","56.903765690376574"
"23","50","5","5","57.3919360697421"
"31","50","5","3","57.73044436283511"
"36","50","5","4","57.58697261287935"
"43","50","10","4","57.64665988470667"
"47","50","10","3","54.808387563268255"
"29","50","5","6","57.72236695199106"
"21","50","5","5","56.16587850127319"
"44","50","10","4","56.19484645252383"
"41","50","10","6","57.03334610962054"
"52","50","10","3","55.49174443646806"
"51","50","10","4","59.2520451889365"
"46","50","10","4","57.768777614138436"
"42","50","10","5","57.79679940454038"
"48","50","10","5","57.43665075284613"
"45","50","10","4","56.85848715164676"
"49","50","10","5","56.941802966907574"
"50","50","10","5","57.580457541682826"
"58","50","10","5","57.509433962264154"
"53","50","10","3","56.193458594293666"
"59","50","10","4","57.72532188841202"
"54","50","10","5","54.42300691663633"
"57","50","10","6","58.416206261510126"
"39","50","5","6","58.05161759360232"
"62","50","15","6","57.65400221320546"
"66","50","15","4","58.67620751341681"
"63","50","15","5","58.41622035195103"
"64","50","15","5","56.57439446366782"
"40","50","5","4","57.36196319018405"
"65","50","15","4","58.19209039548022"
"60","50","10","4","55.71757482732157"
"70","50","15","4","56.730769230769226"
"61","50","15","5","56.936619718309856"
"56","50","10","5","55.669737774627926"
"69","50","15","5","58.00988002822866"
"73","50","15","4","56.441947565543074"
"67","50","15","5","56.44080416976918"
"55","50","10","5","58.028169014084504"
"68","50","15","5","56.74300254452926"
"71","50","15","5","58.14373420007223"
"77","50","15","4","58.584729981378025"
"75","50","15","7","56.87369155617586"
"85","50","20","4","61.986035686578745"
"72","50","15","7","58.05597579425113"
"78","50","15","7","57.76024051108606"
"74","50","15","5","55.55967383246849"
"76","50","15","4","57.850330154071905"
"83","50","20","4","57.21446473326173"
"79","50","15","5","56.65385958784491"
"84","50","20","6","59.97736703130894"
"80","50","15","5","58.745874587458744"
"87","50","20","5","60.234776228906824"
"82","50","20","7","59.840055632823365"
"91","50","20","5","59.38814531548757"
"92","50","20","4","59.54667691125625"
"88","50","20","6","59.1941391941392"
"86","50","20","5","59.67153284671532"
"93","50","20","7","61.0975183502272"
"90","50","20","5","57.45664739884393"
"94","50","20","5","59.924812030075195"
"96","50","20","5","59.245697546686195"
"89","50","20","8","59.041557469112696"
"95","50","20","5","58.40084536808735"
"97","50","20","6","59.715462373642836"
"98","50","20","5","60.198092443140126"
"105","50","25","5","64.81892091648189"
"99","50","20","5","58.19615912208504"
"104","50","25","7","65.30531324345758"
"100","50","20","7","60.196649672250544"
"107","50","25","9","64.91228070175438"
"103","50","25","9","68.02575107296137"
"101","50","25","9","64.79683567062207"
"109","50","25","7","64.68133535660091"
"114","50","25","7","64.92331891466772"
"106","50","25","9","65.06447831184057"
"110","50","25","8","63.182140326009915"
"108","50","25","8","65.30539772727273"
"112","50","25","9","67.54418954494172"
"116","50","25","7","67.77735706171904"
"102","50","25","11","64.96993987975952"
"113","50","25","11","65"
"117","50","25","7","64.79572355861015"
"115","50","25","9","63.971417826250466"
"111","50","25","8","66.02980512036683"
"118","50","25","7","65.00190621425848"
"119","50","25","6","66.7557251908397"
"120","50","25","9","66.80560818491853"
"81","50","20","6","58.41337602276769"
"123","50","30","11","76.85519454472524"
"124","50","30","10","73.9179525780956"
"121","50","30","11","73.53279631760644"
"130","50","30","8","73.63970588235294"
"126","50","30","10","75.88461538461539"
"133","50","30","9","75.66074950690336"
"132","50","30","8","74.06559877955759"
"127","50","30","8","76.01532567049809"
"128","50","30","11","74.3141153081511"
"125","50","30","12","74.40915805022156"
"136","50","30","10","73.78535170413343"
"122","50","30","13","77.28719172633254"
"135","50","30","11","75.20278099652376"
"139","50","30","13","72.92352725942189"
"131","50","30","14","75.22538766678687"
"129","50","30","14","74.02885682574917"
"137","50","30","12","76.20374054914446"
"141","50","35","10","82.20986796386379"
"134","50","30","15","76.88555347091932"
"138","50","30","12","73.96996534462842"
"149","50","35","12","84.41121495327103"
"142","50","35","13","82.00743494423793"
"143","50","35","9","83.80651945320714"
"146","50","35","16","83.8826512133285"
"144","50","35","17","83.423814694173"
"154","50","35","9","83.11836115326253"
"145","50","35","14","84.53101361573374"
"153","50","35","9","82.03793231684641"
"156","50","35","12","84.44360333080999"
"151","50","35","17","84.16826003824092"
"155","50","35","15","85.2740953063418"
"162","50","40","11","84.32727272727273"
"158","50","35","15","84.7997004867091"
"147","50","35","21","82.95174357168017"
"161","50","40","14","83.21167883211679"
"159","50","35","12","82.64230498945889"
"157","50","35","11","82.14669051878354"
"166","50","40","9","82.461786001609"
"150","50","35","16","81.70257859413634"
"165","50","40","13","85.65400843881856"
"148","50","35","14","82.84789644012946"
"152","50","35","15","83.58154740283328"
"164","50","40","19","82.36933797909408"
"168","50","40","14","83.27219369038885"
"163","50","40","14","85.1995350639287"
"167","50","40","16","83.76259798432251"
"170","50","40","9","84.08396946564885"
"172","50","40","12","81.6014234875445"
"160","50","35","15","85.85308977846871"
"178","50","40","10","81.67360848163574"
"171","50","40","12","83.72348207754207"
"176","50","40","11","84.31941923774954"
"169","50","40","14","82.35081374321881"
"175","50","40","14","82.86445012787725"
"173","50","40","17","80.58425365158533"
"180","50","40","14","84.99607227022781"
"174","50","40","15","80.754039497307"
"183","50","45","16","87.19629772464327"
"179","50","40","13","84.37847866419294"
"177","50","40","14","82.60565840027942"
"188","50","45","14","90.70977331846896"
"185","50","45","14","89.31047063115652"
"191","50","45","14","90.98901098901099"
"184","50","45","17","89.39338903014892"
"192","50","45","13","88.68725868725869"
"190","50","45","17","90.62821833161689"
"194","50","45","16","89.26739926739927"
"181","50","45","14","88.74251497005989"
"182","50","45","16","90.3731343283582"
"193","50","45","14","90.3698534542917"
"186","50","45","21","89.32867675591774"
"195","50","45","19","89.60987261146497"
"187","50","45","13","89.63460104399702"
"198","50","45","16","90.02576370997424"
"201","50","50","14","91.19047619047619"
"197","50","45","19","90.70331447049313"
"203","50","50","13","89.02809415337889"
"196","50","45","23","89.40443213296399"
"189","50","45","17","88.70722433460077"
"207","50","50","14","89.20339668418924"
"205","50","50","13","88.21248545948042"
"206","50","50","14","89.31475029036005"
"221","55","0","0","48.47436300723498"
"222","55","0","0","49.798449612403104"
"202","50","50","19","89.04428904428904"
"200","50","45","16","89.38775510204081"
"224","55","0","0","51.291866028708135"
"223","55","0","0","48.22764227642276"
"225","55","0","0","48.87674559805708"
"209","50","50","13","89.85288570350811"
"228","55","0","0","51.56980627922512"
"226","55","0","0","49.9672988881622"
"227","55","0","0","50.13657056145675"
"140","50","30","12","74.79789103690685"
"229","55","0","0","50.64811887448625"
"204","50","50","19","89.97475658131987"
"230","55","0","0","50.42306486994672"
"233","55","0","0","48.35058214747736"
"231","55","0","0","50.4320987654321"
"217","50","50","11","88.7457370215991"
"235","55","0","0","49.614078419265205"
"210","50","50","16","89.182156133829"
"211","50","50","15","90.94412331406551"
"232","55","0","0","48.43698585060876"
"199","50","45","18","90.49630411826821"
"236","55","0","0","50"
"238","55","0","0","47.848932676518885"
"239","55","0","0","50.45454545454545"
"240","55","0","0","50.22040302267003"
"237","55","0","0","49.57365480740958"
"213","50","50","13","89.95368721054507"
"212","50","50","18","88.4629165173773"
"215","50","50","14","88.08234019501626"
"234","55","0","0","48.52530270102452"
"241","55","5","3","53.51945351945352"
"214","50","50","18","89.3048128342246"
"242","55","5","3","55.30233971437253"
"243","55","5","3","55.49025672749768"
"249","55","5","4","53.21044546850998"
"247","55","5","5","55.68424260896069"
"252","55","5","3","56.493506493506494"
"218","50","50","17","88.38310269482884"
"208","50","50","19","89.98543335761107"
"220","50","50","16","89.0301489284417"
"248","55","5","5","55.71693448702101"
"246","55","5","5","56.36252670125115"
"251","55","5","3","53.49721978343577"
"244","55","5","6","55.530618788073106"
"250","55","5","4","56.57934357121349"
"245","55","5","3","56.83385579937305"
"253","55","5","5","54.40693158051987"
"256","55","5","4","55.68844807467911"
"216","50","50","20","90.62129006727345"
"257","55","5","3","54.36020377584657"
"258","55","5","3","55.85472761427677"
"255","55","5","4","55.333937745542464"
"264","55","10","3","57.1831869510665"
"262","55","10","3","55.035545023696685"
"261","55","10","4","56.390066626287094"
"259","55","5","4","55.132850241545896"
"260","55","5","4","53.81040892193308"
"271","55","10","4","54.391789918502866"
"219","50","50","18","89.60747663551402"
"272","55","10","3","55.77269993986771"
"263","55","10","4","55.00765696784073"
"267","55","10","4","57.19927095990279"
"270","55","10","3","56.91056910569105"
"273","55","10","3","54.818925233644855"
"276","55","10","3","55.73926868044515"
"265","55","10","5","54.983029929034245"
"269","55","10","5","54.76895734597157"
"274","55","10","4","53.83217206906998"
"277","55","10","4","54.351909830932996"
"266","55","10","5","55.439208842350205"
"275","55","10","5","55.144032921810705"
"282","55","15","4","56.269302038295244"
"279","55","10","6","53.51402458241412"
"280","55","10","4","56.35820895522387"
"268","55","10","5","54.743861776295844"
"284","55","15","4","55.58814901730713"
"278","55","10","7","55.9116365899191"
"288","55","15","4","55.23568490983865"
"281","55","15","7","54.72230938186382"
"285","55","15","4","58.08383233532935"
"286","55","15","5","55.3475935828877"
"292","55","15","4","56.14138438880707"
"290","55","15","4","56.123662306777646"
"294","55","15","3","54.833040421792624"
"293","55","15","5","56.121794871794876"
"291","55","15","4","56.71870217324763"
"296","55","15","4","54.36003547147502"
"295","55","15","4","55.61694290976059"
"283","55","15","6","56.92634131555017"
"287","55","15","7","57.52434809927741"
"298","55","15","5","57.81990521327014"
"303","55","20","4","59.43966889525629"
"300","55","15","5","55.908289241622576"
"297","55","15","6","58.423586040914564"
"289","55","15","6","57.08502024291497"
"299","55","15","5","57.03534031413613"
"304","55","20","5","57.820179242555646"
"305","55","20","4","57.84107946026986"
"302","55","20","8","57.21776681061074"
"301","55","20","8","58.02931088244465"
"307","55","20","6","59.45454545454546"
"309","55","20","6","59.57182748991623"
"317","55","20","4","58.41521394611727"
"311","55","20","6","58.270911360799005"
"306","55","20","7","59.981285090455394"
"314","55","20","6","57.6215505913272"
"308","55","20","6","56.2167240839336"
"313","55","20","5","58.22249093107617"
"318","55","20","4","59.42320590207915"
"312","55","20","5","60.84905660377359"
"310","55","20","6","59.216441875401415"
"315","55","20","6","57.92701625268323"
"316","55","20","6","59.97666277712952"
"320","55","20","5","59.21717171717171"
"319","55","20","7","57.757296466973884"
"324","55","25","6","66.33279483037157"
"321","55","25","6","65.95744680851064"
"329","55","25","6","66.02279924002534"
"254","55","5","5","55.67875337129158"
"328","55","25","8","67.55514705882352"
"333","55","25","8","63.24149108589951"
"336","55","25","7","63.863707408565176"
"325","55","25","11","68.11059907834101"
"337","55","25","8","63.327999999999996"
"327","55","25","11","64.67272157845287"
"330","55","25","9","67.578125"
"323","55","25","10","65.49549549549549"
"322","55","25","9","64.58200382897256"
"335","55","25","10","62.54635352286774"
"334","55","25","9","61.81136429189501"
"331","55","25","12","63.462804476629366"
"339","55","25","7","63.24062877871825"
"338","55","25","7","63.13586606567934"
"326","55","25","15","65.24351676154333"
"332","55","25","10","65.17521902377973"
"341","55","30","8","73.2191990217059"
"340","55","25","10","64.98442367601245"
"342","55","30","10","73.35494327390599"
"344","55","30","9","71.8408262454435"
"348","55","30","9","78.13938198553583"
"347","55","30","10","72.90167865707434"
"346","55","30","10","75.15262515262515"
"352","55","30","8","72.4375"
"349","55","30","10","73.58490566037736"
"345","55","30","13","74.00688145136066"
"350","55","30","11","74.10582323381614"
"355","55","30","10","73.08649657747355"
"357","55","30","11","75.20264184929451"
"351","55","30","12","72.84364523011277"
"354","55","30","13","75.57480839720093"
"359","55","30","10","74.38725490196079"
"353","55","30","14","76.70595533498759"
"358","55","30","14","75.421611492817"
"356","55","30","15","73.69240348692404"
"360","55","30","11","73.6403069736403"
"361","55","35","13","81.33813381338135"
"363","55","35","12","82.67597087378641"
"362","55","35","12","80.73447974351501"
"365","55","35","12","82.51686711645644"
"367","55","35","12","81.17206982543641"
"368","55","35","12","82.6743133111983"
"370","55","35","10","83.58067571834543"
"364","55","35","19","82.24796493425173"
"366","55","35","14","82.80216476247745"
"372","55","35","13","83.14358001265022"
"371","55","35","14","80.66935949221003"
"369","55","35","17","81.47050103765194"
"374","55","35","12","81.66765227675931"
"377","55","35","14","80.98772480730803"
"373","55","35","15","80.66165413533835"
"380","55","35","12","81.01067168863779"
"376","55","35","14","81.15569823434991"
"375","55","35","13","81.0232004759072"
"381","55","40","12","81.55497722836695"
"378","55","35","13","83.0518697225573"
"379","55","35","13","80.35119588253103"
"384","55","40","11","81.30153121319199"
"382","55","40","15","83.47381095725467"
"386","55","40","12","82.97029702970296"
"385","55","40","14","81.99316982303633"
"383","55","40","18","85.21481481481482"
"387","55","40","11","84.02646502835539"
"388","55","40","11","81.08108108108108"
"391","55","40","12","80.68709377901578"
"392","55","40","13","81.34615384615384"
"390","55","40","14","81.71241050119332"
"393","55","40","13","83.08776425368353"
"396","55","40","11","82.8239608801956"
"395","55","40","14","83.22253877809433"
"394","55","40","14","80.82111436950147"
"397","55","40","14","81.21387283236994"
"401","55","45","13","88.30246913580247"
"389","55","40","12","82.39395700174316"
"400","55","40","14","81.25188993045056"
"399","55","40","16","81.7004317502491"
"398","55","40","16","81.80661577608143"
"402","55","45","16","88.57401266204401"
"343","55","30","9","73.79267917563827"
"405","55","45","15","89.59952181709504"
"404","55","45","19","89.51204055766794"
"406","55","45","15","88.84057971014492"
"410","55","45","11","88.20945945945947"
"403","55","45","20","89.48393378773125"
"412","55","45","13","89.0806401004079"
"407","55","45","15","88.36436170212765"
"414","55","45","13","88.3652908677283"
"411","55","45","20","88.125"
"408","55","45","17","88.61985472154964"
"418","55","45","15","90.21464646464646"
"409","55","45","17","89.51858622790981"
"415","55","45","17","88.66880279638801"
"416","55","45","15","88.64115697499247"
"413","55","45","21","88.85288399222294"
"420","55","45","17","89.86422481844016"
"417","55","45","14","88.13878429263045"
"419","55","45","15","88.72315035799522"
"427","55","50","12","89.07120743034056"
"423","55","50","15","89.65406790518898"
"424","55","50","14","87.28399087055755"
"441","60","0","0","48.200270635994585"
"442","60","0","0","49.21011058451817"
"421","55","50","19","89.07537381751602"
"444","60","0","0","50.26483050847458"
"443","60","0","0","51.128990397093176"
"445","60","0","0","49.97304582210242"
"448","60","0","0","47.96831075900843"
"447","60","0","0","50.60335781741868"
"430","55","50","13","89.60122699386504"
"446","60","0","0","49.59156785243742"
"450","60","0","0","49.03719335267739"
"449","60","0","0","50.930851063829785"
"451","60","0","0","50.39390756302521"
"453","60","0","0","51.23571618389583"
"452","60","0","0","49.179879715691634"
"426","55","50","20","88.54766474728088"
"454","60","0","0","48.87478361223312"
"456","60","0","0","48.29168791432942"
"458","60","0","0","50.41499330655957"
"429","55","50","17","88.73466752743707"
"425","55","50","22","88.9934148635936"
"459","60","0","0","49.71006852925672"
"455","60","0","0","49.57446808510638"
"460","60","0","0","50.711159737417944"
"431","55","50","16","88.83888388838884"
"457","60","0","0","49.81203007518797"
"428","55","50","18","88.16254416961131"
"434","55","50","16","89.20012449424213"
"438","55","50","12","88.57672121025007"
"432","55","50","15","87.40601503759399"
"440","55","50","12","88.90639773085408"
"437","55","50","17","89.10481044918764"
"467","60","5","3","54.75797579757976"
"439","55","50","13","88.61241217798595"
"465","60","5","3","54.83784508174752"
"462","60","5","3","53.736654804270465"
"466","60","5","3","55.46602202524845"
"461","60","5","4","54.67054776395872"
"435","55","50","16","88.01932367149759"
"463","60","5","3","53.61746908708235"
"468","60","5","4","53.17204301075269"
"464","60","5","4","54.717948717948715"
"433","55","50","20","89.6796056685151"
"469","60","5","4","53.67420349434738"
"436","55","50","19","89.16372202591283"
"471","60","5","4","54.3735820519284"
"472","60","5","3","56.23149394347241"
"470","60","5","5","53.27534656156564"
"475","60","5","3","53.04697986577182"
"474","60","5","3","55.13741025006189"
"482","60","10","3","52.47913598429063"
"480","60","5","4","54.71797575118609"
"478","60","5","4","55.172413793103445"
"479","60","5","3","53.29169919333854"
"486","60","10","3","53.304789938453304"
"473","60","5","3","54.74816369359916"
"477","60","5","3","53.58130183463181"
"483","60","10","3","54.90294933198891"
"485","60","10","3","55.053763440860216"
"476","60","5","4","55.34028812717337"
"481","60","10","5","54.38263229308006"
"484","60","10","4","55.26985743380855"
"487","60","10","3","53.125772176921174"
"489","60","10","4","55.038167938931295"
"488","60","10","5","54.9973418394471"
"490","60","10","4","56.07921784908498"
"493","60","10","3","53.86834513506425"
"496","60","10","3","55.08451837939361"
"492","60","10","4","53.99946850916821"
"494","60","10","3","53.94255874673629"
"495","60","10","4","53.799392097264445"
"491","60","10","4","54.40267765190525"
"497","60","10","3","54.045561665357425"
"498","60","10","4","54.65055176037835"
"499","60","10","5","55.49132947976878"
"502","60","15","4","54.6207610665286"
"500","60","10","4","55.25432481280661"
"503","60","15","4","56.466069142125484"
"504","60","15","4","55.028007468658316"
"505","60","15","4","54.92161398098175"
"506","60","15","4","54.28881650380022"
"501","60","15","6","57.11925089507023"
"509","60","15","3","57.088948787062"
"515","60","15","3","53.47860330795484"
"514","60","15","4","54.29553264604811"
"511","60","15","4","55.258467023172905"
"516","60","15","4","55.234375"
"510","60","15","4","54.982115482881966"
"517","60","15","4","56.64032628090747"
"507","60","15","7","53.93286573146293"
"508","60","15","7","55.81095041322314"
"513","60","15","6","56.120826709062"
"512","60","15","6","55.93898474618655"
"518","60","15","4","53.67101560501407"
"519","60","15","4","56.50098286998034"
"520","60","15","4","56.37748164264346"
"526","60","20","5","57.993474714518754"
"522","60","20","6","58.75737981445038"
"523","60","20","7","56.81818181818182"
"524","60","20","6","59.06677842972897"
"525","60","20","5","56.60040774719673"
"521","60","20","8","59.989780275932546"
"529","60","20","5","56.657575006198854"
"527","60","20","6","59.35271530444323"
"528","60","20","7","56.71803190051365"
"533","60","20","5","58.62548692264886"
"531","60","20","5","56.7891156462585"
"532","60","20","5","57.12140175219024"
"536","60","20","6","60.5444047291724"
"535","60","20","5","55.46239210850802"
"530","60","20","7","56.63856691253951"
"539","60","20","6","57.8125"
"534","60","20","8","58.524374176548086"
"538","60","20","8","58.962644450416555"
"540","60","20","7","59.12510448592923"
"537","60","20","8","58.20700470465238"
"542","60","25","8","64.06035665294925"
"544","60","25","7","63.90608875128999"
"545","60","25","7","65.49432290224314"
"546","60","25","8","63.35050149091895"
"543","60","25","9","63.09173575822412"
"541","60","25","9","62.06801974766868"
"549","60","25","8","64.07922912205566"
"550","60","25","8","64.1403320835565"
"547","60","25","9","65.78947368421053"
"552","60","25","9","64.63858554342174"
"553","60","25","10","64.54469969554387"
"555","60","25","7","63.48025186033199"
"556","60","25","9","65.0143490738325"
"548","60","25","11","64.07407407407408"
"554","60","25","9","62.209747384536875"
"557","60","25","7","63.526383526383526"
"558","60","25","8","63.666838576585874"
"551","60","25","13","62.67281105990783"
"559","60","25","9","64.58392502130077"
"560","60","25","11","62.77922077922078"
"562","60","30","10","73.99297107326305"
"561","60","30","9","72.71547248182763"
"564","60","30","10","74.91059147180192"
"563","60","30","9","72.02320887991928"
"567","60","30","9","71.07661985710766"
"565","60","30","12","74.20701168614357"
"573","60","30","9","73.74330186272007"
"566","60","30","13","73.28471096704484"
"568","60","30","11","71.27604166666667"
"574","60","30","9","71.67859984089101"
"577","60","30","9","70.96532801197306"
"572","60","30","11","73.36256508632502"
"570","60","30","12","73.14571278274592"
"575","60","30","13","74.54966546577457"
"571","60","30","15","72.6447824926608"
"580","60","30","8","71.2768781523759"
"576","60","30","13","74.55529775715391"
"583","60","35","9","79.58344047312934"
"579","60","30","13","73.46938775510205"
"569","60","30","21","72.10210992445948"
"578","60","30","14","72.3888591322978"
"582","60","35","12","80.69392812887237"
"584","60","35","10","82.0404943465685"
"586","60","35","11","81.60692212608159"
"585","60","35","13","80.94086021505376"
"587","60","35","11","81.39227104287983"
"581","60","35","16","81.33858267716535"
"589","60","35","13","79.77243994943109"
"591","60","35","11","80.55041016141836"
"588","60","35","14","82.4369105276574"
"595","60","35","10","79.33138116154221"
"590","60","35","13","80.20317145688801"
"593","60","35","13","81.04080136818959"
"594","60","35","11","80.63271604938271"
"596","60","35","13","80.36858974358975"
"597","60","35","13","81.2296858071506"
"599","60","35","10","80.28846153846155"
"592","60","35","13","80.49834731756928"
"598","60","35","12","80.08021390374331"
"422","55","50","17","89.54891994917408"
"601","60","40","12","80.83969465648855"
"602","60","40","14","81.10587651872055"
"603","60","40","16","81.38176276352553"
"604","60","40","13","83.00261096605745"
"605","60","40","13","81.3305827746261"
"600","60","35","16","81.37412775093934"
"613","60","40","12","81.65961945031712"
"610","60","40","14","80.70539419087137"
"607","60","40","17","81.56323032978447"
"612","60","40","14","82.826982492276"
"611","60","40","15","83.59493670886076"
"608","60","40","17","81.91773504273505"
"606","60","40","18","82.06394593189499"
"616","60","40","13","81.34095634095634"
"609","60","40","16","80.3066349458102"
"614","60","40","14","80.08769667268506"
"617","60","40","12","81.66459627329192"
"618","60","40","16","82.06951026856241"
"615","60","40","18","82.03485392106612"
"620","60","40","16","80.08565310492506"
"623","60","45","16","88.88888888888889"
"621","60","45","16","86.76703645007923"
"626","60","45","16","87.84949046250327"
"622","60","45","19","89.0990281061203"
"625","60","45","15","89.46280991735537"
"633","60","45","13","88.59671960426972"
"624","60","45","22","88.48422672480123"
"630","60","45","15","88.2461214830397"
"628","60","45","16","87.11264141662568"
"629","60","45","17","88.97980056251598"
"635","60","45","16","89.40027894002789"
"632","60","45","15","87.4239350912779"
"631","60","45","16","87.4443895205141"
"634","60","45","16","89.29384965831434"
"627","60","45","24","88.53598014888337"
"636","60","45","22","89.96905621454357"
"637","60","45","21","88.43039958213633"
"639","60","45","13","88.21160042964554"
"638","60","45","21","87.79642952304823"
"642","60","50","12","88.05646036916394"
"641","60","50","12","88.15296175956011"
"643","60","50","15","88.08146844355042"
"661","65","0","0","49.88235294117647"
"648","60","50","14","87.88827982250065"
"646","60","50","15","88.14644137224782"
"640","60","45","20","88.55280312907432"
"662","65","0","0","49.42683749157114"
"649","60","50","15","88.38862559241706"
"647","60","50","15","88.93793819787068"
"663","65","0","0","50.18256503879507"
"645","60","50","19","88.65435356200527"
"664","65","0","0","50.289403383793406"
"665","65","0","0","49.55936920222634"
"668","65","0","0","50.53364269141532"
"644","60","50","19","88.18660647103084"
"666","65","0","0","50.203619909502265"
"667","65","0","0","49.55476402493321"
"670","65","0","0","50.35410764872521"
"669","65","0","0","49.98808672861568"
"671","65","0","0","49.79838709677419"
"672","65","0","0","50.3199268738574"
"673","65","0","0","50.63347410535675"
"675","65","0","0","50.522803114571744"
"674","65","0","0","49.197332674734504"
"676","65","0","0","49.52402538531278"
"677","65","0","0","49.27167630057803"
"679","65","0","0","49.451575262543756"
"680","65","0","0","50.392288724501235"
"678","65","0","0","50.10640813431071"
"653","60","50","14","87.37558931377684"
"654","60","50","14","88.38409912235416"
"652","60","50","19","89.0677025527192"
"659","60","50","11","88.22292323869611"
"656","60","50","15","88.4255546645282"
"686","65","5","2","52.757475083056484"
"650","60","50","21","88.40998685939553"
"682","65","5","3","54.044599912549195"
"688","65","5","2","53.75931361481147"
"683","65","5","3","52.170081515752365"
"687","65","5","3","51.51029748283753"
"657","60","50","13","87.44137571651902"
"681","65","5","4","53.088845230299064"
"685","65","5","4","54.39659039928218"
"684","65","5","4","52.902662592754254"
"690","65","5","3","53.14861460957179"
"691","65","5","3","53.81090207428847"
"695","65","5","2","53.383458646616546"
"658","60","50","16","87.76371308016878"
"689","65","5","4","52.10597826086957"
"693","65","5","3","51.95428571428572"
"660","60","50","15","89.03462749213011"
"696","65","5","3","52.45086966342895"
"694","65","5","3","53.24849296718017"
"698","65","5","4","51.97677015858834"
"700","65","5","3","53.42902711323764"
"655","60","50","19","89.48437896875794"
"699","65","5","4","53.83949816136708"
"702","65","10","3","54.211806323236786"
"701","65","10","4","53.471757088635854"
"697","65","5","6","53.01394511920827"
"692","65","5","3","52.203023758099356"
"707","65","10","3","53.63282145312858"
"705","65","10","3","52.29986731534719"
"704","65","10","4","52.63157894736842"
"706","65","10","3","52.576164874551964"
"703","65","10","5","54.09011373578303"
"712","65","10","2","52.14763652061299"
"651","60","50","31","88.85358750330951"
"708","65","10","4","52.65911072362685"
"711","65","10","3","53.231106243154436"
"714","65","10","3","53.41889798628014"
"710","65","10","4","53.04444444444445"
"709","65","10","5","53.683300928926336"
"713","65","10","4","53.49115255858441"
"716","65","10","4","51.85512367491166"
"717","65","10","5","52.29793977812995"
"715","65","10","5","53.347826086956516"
"719","65","10","3","53.455541508638845"
"718","65","10","3","52.51599147121535"
"720","65","10","3","52.849185946872325"
"724","65","15","3","53.759484939066446"
"723","65","15","4","56.08490566037736"
"726","65","15","4","55.17086330935251"
"727","65","15","4","55.21776627856835"
"721","65","15","6","54.39586271744241"
"729","65","15","4","54.55169258920402"
"730","65","15","4","52.10830004438527"
"725","65","15","6","55.34873289975331"
"722","65","15","5","55.06429054816152"
"728","65","15","4","54.387990762124716"
"732","65","15","5","54.67561521252796"
"619","60","40","12","81.4973531635997"
"731","65","15","5","54.221724524076144"
"737","65","15","4","57.045143638850895"
"735","65","15","4","54.285714285714285"
"734","65","15","4","53.66135366135366"
"738","65","15","4","54.39814814814815"
"733","65","15","5","54.81331533963113"
"736","65","15","4","53.221099887766556"
"739","65","15","5","55.44270258335173"
"740","65","15","5","55.49488054607509"
"741","65","20","6","57.69497801434853"
"745","65","20","5","58.3029197080292"
"744","65","20","6","58.25444470099285"
"750","65","20","5","58.603216567525884"
"742","65","20","6","57.453973955994606"
"743","65","20","7","57.42725880551301"
"748","65","20","6","58.52492601866606"
"752","65","20","5","59.20962979786509"
"754","65","20","7","57.773109243697476"
"749","65","20","7","57.69843074823744"
"757","65","20","5","57.08582834331337"
"758","65","20","6","57.56449497157848"
"755","65","20","7","60.10054844606947"
"747","65","20","9","59.18506715228773"
"759","65","20","5","56.3071686875133"
"746","65","20","9","57.077024358130345"
"756","65","20","9","59.061452513966486"
"753","65","20","10","58.309360477981855"
"763","65","25","6","61.87349529437513"
"760","65","20","8","60.08648648648649"
"764","65","25","7","62.3492630638678"
"773","65","25","6","63.95428571428572"
"770","65","25","6","62.57443884562529"
"765","65","25","10","63.854073410922105"
"766","65","25","9","63.31374321880651"
"762","65","25","11","62.42081447963801"
"774","65","25","6","61.8001267694908"
"767","65","25","8","62.61081560283688"
"761","65","25","14","62.596310996964746"
"775","65","25","7","62.170212765957444"
"769","65","25","7","61.33150934792522"
"776","65","25","7","64.72215817385289"
"778","65","25","7","63.64703121333021"
"777","65","25","7","62.28609039052216"
"768","65","25","9","63.88826312232485"
"772","65","25","10","64.4044636757003"
"771","65","25","9","59.53757225433526"
"779","65","25","7","62.63662725853223"
"780","65","25","7","61.73327137546468"
"751","65","20","7","57.07240529029366"
"781","65","30","10","72.34378524701106"
"787","65","30","9","70.50767414403778"
"784","65","30","12","73.1965734896303"
"783","65","30","13","74.63414634146342"
"789","65","30","10","72.66925005698656"
"782","65","30","12","71.8183851487363"
"791","65","30","9","74.62087421944692"
"785","65","30","11","71.52374811949281"
"792","65","30","9","73.42950209399721"
"788","65","30","13","72.29791099000909"
"793","65","30","10","73.17073170731707"
"794","65","30","11","71.22815087396505"
"786","65","30","16","71.31661442006269"
"798","65","30","11","75.14860539551897"
"799","65","30","10","70.30588235294117"
"796","65","30","12","73.09529224471231"
"800","65","30","11","72.41379310344827"
"795","65","30","11","72.83840853523004"
"790","65","30","17","71.61581920903954"
"801","65","35","12","80.81264108352144"
"797","65","30","13","72.0475976650202"
"805","65","35","12","79.3463458919655"
"804","65","35","15","78.72533454298026"
"806","65","35","14","79.26526932612126"
"812","65","35","13","79.56154373144554"
"808","65","35","11","79.06097018246551"
"807","65","35","14","81.17164349213586"
"803","65","35","16","79.71553610503283"
"813","65","35","13","81.8552036199095"
"811","65","35","16","79.26775474194972"
"816","65","35","11","79.0109389243391"
"802","65","35","20","78.03030303030303"
"820","65","35","11","78.92590074779062"
"819","65","35","11","78.61336946702801"
"815","65","35","12","80.32046941999549"
"809","65","35","17","80.69419237749547"
"817","65","35","12","80.8944041208148"
"818","65","35","12","79.21646746347942"
"810","65","35","21","78.15021725636251"
"821","65","40","14","81.55424579786073"
"823","65","40","11","80.7843137254902"
"825","65","40","11","78.61790442001346"
"822","65","40","14","79.88416128313656"
"824","65","40","13","79.96723613386379"
"826","65","40","11","80.2407449466273"
"814","65","35","22","80.11882028431997"
"828","65","40","12","82.02034539862787"
"833","65","40","10","79.20334507042254"
"832","65","40","11","79.94018372142705"
"837","65","40","11","80.23732470334413"
"827","65","40","16","80.58323207776428"
"834","65","40","11","79.20727745289149"
"830","65","40","14","83.34507869391591"
"829","65","40","17","80.84248263499887"
"831","65","40","15","80.51189941625505"
"838","65","40","12","80.76307973497829"
"835","65","40","14","80.00856164383562"
"836","65","40","16","81.55799440499247"
"840","65","40","12","80.64516129032258"
"839","65","40","14","81.19695321001088"
"841","65","45","15","88.11556139198949"
"842","65","45","14","88.5670057496683"
"843","65","45","14","87.25314183123878"
"844","65","45","15","87.9813042510572"
"846","65","45","16","88.91271713489171"
"847","65","45","17","88.29600351339482"
"852","65","45","15","88.51366363030438"
"845","65","45","18","88.02992518703242"
"850","65","45","15","86.80995475113123"
"851","65","45","15","88.11527135044173"
"854","65","45","14","88.57589984350548"
"849","65","45","20","89.05047048759623"
"859","65","45","12","88.28690502303137"
"855","65","45","14","87.56230176710467"
"853","65","45","19","89.04855214456782"
"858","65","45","19","88.5313720983682"
"857","65","45","18","89.2095627826836"
"860","65","45","17","88.43091334894613"
"863","65","50","15","88.86271150139217"
"861","65","50","17","88.17413905133203"
"862","65","50","20","87.9453282545373"
"848","65","45","33","88.43864468864469"
"864","65","50","18","87.88148808197816"
"882","70","0","0","51.081730769230774"
"881","70","0","0","49.796665311102075"
"865","65","50","17","87.45845335696876"
"856","65","45","24","86.77398303241245"
"885","70","0","0","50.42786069651741"
"884","70","0","0","48.894395730080056"
"883","70","0","0","50.048856752003125"
"869","65","50","16","87.03547297297297"
"886","70","0","0","50.33464566929133"
"888","70","0","0","49.16993098302556"
"889","70","0","0","50.277888050813814"
"868","65","50","17","88.4391771019678"
"890","70","0","0","49.04206991902034"
"887","70","0","0","49.56521739130435"
"891","70","0","0","50.46196186357381"
"866","65","50","19","88.755106428725"
"894","70","0","0","50.441262992743674"
"893","70","0","0","50"
"892","70","0","0","51.014832162373146"
"895","70","0","0","50.56201932557681"
"896","70","0","0","49.5338467774625"
"898","70","0","0","50.117370892018776"
"897","70","0","0","49.59159859976663"
"899","70","0","0","49.48414931532545"
"875","65","50","15","87.8173719376392"
"900","70","0","0","50.33947623666344"
"867","65","50","21","87.07664884135473"
"870","65","50","17","88.61990950226244"
"902","70","5","2","51.65200391006842"
"872","65","50","19","86.86580276740611"
"906","70","5","2","53.05201177625123"
"901","70","5","3","53.264604810996566"
"904","70","5","3","53.82305844675741"
"905","70","5","2","50.952018278750955"
"903","70","5","3","51.67322834645669"
"873","65","50","18","89.81047937569677"
"910","70","5","2","52.63358778625954"
"871","65","50","21","87.61224959705272"
"909","70","5","3","50.796116504854375"
"880","65","50","12","89.10800275166247"
"874","65","50","18","87.88154897494306"
"907","70","5","2","52.85625902247886"
"908","70","5","4","52.88290073310877"
"915","70","5","2","50.96023278370514"
"916","70","5","2","51.82387619749448"
"913","70","5","3","52.89827255278311"
"920","70","5","2","52.386473429951685"
"911","70","5","4","53.51235648958942"
"914","70","5","2","52.59664193674346"
"918","70","5","2","52.73281279756237"
"878","65","50","16","87.74016468435498"
"912","70","5","4","52.66875981161695"
"921","70","10","2","53.139625585023396"
"917","70","5","4","52.681017612524464"
"919","70","5","3","51.379509936330315"
"877","65","50","16","88.24688115561392"
"922","70","10","3","51.96208530805687"
"923","70","10","2","52.752293577981646"
"924","70","10","3","52.76923076923077"
"925","70","10","3","52.29763507017881"
"930","70","10","2","52.13042608521704"
"926","70","10","3","52.82180131426363"
"932","70","10","2","53.5475234270415"
"928","70","10","3","51.89268651231165"
"927","70","10","3","52.07309884063667"
"933","70","10","3","53.54391371340523"
"929","70","10","4","50.36821705426357"
"937","70","10","3","52.20846423951211"
"936","70","10","3","52.439719005126264"
"940","70","10","3","53.157790536527415"
"876","65","50","25","90.29637760702525"
"935","70","10","4","54.97765136123527"
"938","70","10","3","52.01424020985572"
"941","70","15","4","53.77416073245168"
"879","65","50","21","88.0932022231723"
"934","70","10","4","53.17414094350612"
"939","70","10","3","53.799336038362235"
"931","70","10","4","53.1286436066848"
"945","70","15","3","54.429635437083505"
"942","70","15","4","55.22448157841756"
"943","70","15","5","54.44555444555444"
"946","70","15","3","55.19952820916061"
"951","70","15","3","53.342646178407506"
"948","70","15","4","54.96807661612131"
"950","70","15","4","54.684475416182735"
"947","70","15","5","55.15986980662455"
"944","70","15","5","54.1706432525291"
"954","70","15","4","55.09495609556871"
"952","70","15","5","54.094748439221455"
"955","70","15","4","54.11411411411411"
"953","70","15","5","52.15086646279307"
"959","70","15","4","55.13338722716249"
"956","70","15","5","56.230529595015575"
"960","70","15","4","55.98181818181818"
"957","70","15","6","54.14941849004534"
"949","70","15","6","55.76588757967935"
"962","70","20","4","57.523696682464454"
"958","70","15","6","53.320158102766804"
"966","70","20","5","57.800829875518666"
"969","70","20","5","58.05181347150259"
"963","70","20","7","56.731716932781396"
"968","70","20","7","58.587902083754805"
"964","70","20","8","56.41382049245433"
"961","70","20","9","58.87397464578673"
"974","70","20","6","57.94892100574144"
"967","70","20","6","57.398843930635834"
"965","70","20","7","58.698156682027644"
"971","70","20","7","59.57202904088651"
"972","70","20","6","58.67080023251307"
"977","70","20","5","58.192771084337345"
"980","70","20","5","58.361303060217175"
"976","70","20","5","56.8445475638051"
"978","70","20","6","57.659574468085104"
"973","70","20","7","58.85987642017142"
"970","70","20","9","57.446401225114855"
"979","70","20","7","58.364875094625276"
"981","70","25","7","60.739030023094685"
"975","70","20","8","55.95674840702839"
"982","70","25","10","63.59615384615385"
"984","70","25","8","60.95423563777994"
"987","70","25","7","63.13617606602476"
"985","70","25","9","62.7906976744186"
"983","70","25","10","61.1934552454283"
"990","70","25","7","61.83766620361183"
"995","70","25","8","62.040495380381365"
"998","70","25","6","62.550384756320994"
"996","70","25","8","60.91459839749853"
"988","70","25","10","62.481259370314845"
"994","70","25","9","60.696619950535855"
"991","70","25","10","63.13382382183337"
"989","70","25","9","63.46693386773548"
"992","70","25","11","62.91781360597719"
"993","70","25","10","61.21316494450822"
"997","70","25","11","63.04712236915627"
"986","70","25","15","63.62926829268293"
"1000","70","25","12","61.29694233531705"
"999","70","25","9","60.34382847208808"
"1001","70","30","11","72.55051467784979"
"1002","70","30","11","71.97015527324058"
"1010","70","30","10","73.02023973275693"
"1003","70","30","15","74.9699157641396"
"1008","70","30","10","71.9315308305777"
"1004","70","30","12","73.1904012588513"
"1013","70","30","9","73.84179647987052"
"1007","70","30","13","72.38791230495754"
"1006","70","30","16","74.55340174838464"
"1012","70","30","15","72.84875480866572"
"1011","70","30","15","72.87740431319214"
"1018","70","30","11","72.51953125"
"1009","70","30","15","74.51759364358684"
"1015","70","30","14","73.342939481268"
"1014","70","30","13","74.53596287703016"
"1016","70","30","14","72.06746257343187"
"1020","70","30","11","70.591669910471"
"1021","70","35","11","78.2938564026647"
"1005","70","30","23","71.85367702805155"
"1017","70","30","16","74.07122232916265"
"1019","70","30","16","72.79411764705883"
"1024","70","35","11","79.62148728732555"
"1025","70","35","12","79.64483482910063"
"1026","70","35","11","80.17762660619803"
"1022","70","35","20","78.78787878787878"
"1028","70","35","14","80.64069606486058"
"1034","70","35","12","77.95678544351782"
"1030","70","35","15","79.58646616541354"
"1023","70","35","21","77.55251141552512"
"1031","70","35","15","78.64915572232646"
"1036","70","35","12","78.46093597023693"
"1033","70","35","15","79.13642960812773"
"1027","70","35","21","77.83290335384004"
"1032","70","35","17","77.72200772200773"
"1041","70","40","13","80.32627694697999"
"1038","70","35","13","78.61386138613862"
"1029","70","35","19","79.22128741929171"
"1037","70","35","14","78.02914110429448"
"1042","70","40","14","79.90243902439025"
"1040","70","35","15","80.95789880262649"
"1035","70","35","18","79.99234889058914"
"1039","70","35","18","79.10189982728842"
"1044","70","40","14","81.32875143184421"
"1045","70","40","13","80.74887277004508"
"1043","70","40","17","80.41584158415841"
"1050","70","40","12","80.01525553012966"
"1046","70","40","15","81.45517373776157"
"1054","70","40","10","80.16845329249617"
"1056","70","40","11","80.78977489507821"
"1049","70","40","16","80.44170314365302"
"1059","70","40","12","78.93939393939394"
"1048","70","40","17","81.35956369302689"
"1055","70","40","13","80.14018691588785"
"1058","70","40","13","80.93560383636719"
"1052","70","40","19","80.57009889470622"
"1057","70","40","15","81.05303612605688"
"1053","70","40","20","81.52492668621701"
"1051","70","40","20","79.50371238765143"
"1047","70","40","24","81.11132927547614"
"1063","70","45","15","87.87465940054496"
"1061","70","45","17","87.10287443267775"
"1062","70","45","19","88.56746582127997"
"1060","70","40","22","81.78114086146681"
"1066","70","45","15","87.85348263427596"
"1068","70","45","16","87.24961479198767"
"1065","70","45","18","87.20181749337372"
"1067","70","45","16","88.25004823461316"
"1064","70","45","22","87.72343351011588"
"1071","70","45","18","88.33785354513755"
"1069","70","45","18","87.36654804270462"
"1073","70","45","16","88.62251915897032"
"1072","70","45","17","88.5632183908046"
"1080","70","45","12","87.37007256324769"
"1070","70","45","20","87.01298701298701"
"1074","70","45","21","88.05700521878764"
"1076","70","45","18","88.25248392752776"
"1075","70","45","20","88.70490833826138"
"1077","70","45","18","87.86482334869432"
"1079","70","45","17","87.7734375"
"1081","70","50","14","87.02119747117888"
"1078","70","45","20","87.00018950161076"
"1083","70","50","17","87.01198299188249"
"1082","70","50","21","86.52912621359224"
"1102","75","0","0","51.37835975189524"
"1101","75","0","0","49.54561342188046"
"1084","70","50","17","87.51642575558476"
"1104","75","0","0","50.11401508507279"
"1103","75","0","0","49.335327351279496"
"1105","75","0","0","49.688999466856224"
"1085","70","50","19","87.78811160533765"
"1086","70","50","17","87.7968719830083"
"1089","70","50","15","86.84776236075825"
"1106","75","0","0","49.10864446686848"
"1108","75","0","0","50.58620689655172"
"1109","75","0","0","48.95622895622896"
"1110","75","0","0","50.02757859900717"
"1107","75","0","0","50.13422818791946"
"1112","75","0","0","50.02610057421263"
"1111","75","0","0","49.96531390912244"
"1090","70","50","15","88.83557852002214"
"1113","75","0","0","49.93069993069993"
"1114","75","0","0","50.62839673913043"
"1088","70","50","20","87.84468204839617"
"1115","75","0","0","51.125175808720115"
"1116","75","0","0","50.66576773976066"
"1117","75","0","0","49.96607869742198"
"1118","75","0","0","49.922077922077925"
"1119","75","0","0","50.936849410131856"
"1091","70","50","17","88.46304262807978"
"1120","75","0","0","50.253895990194366"
"1092","70","50","16","87.66438229301723"
"1093","70","50","14","87.5602700096432"
"1087","70","50","20","88.32422586520947"
"1121","75","5","2","53.00810205137046"
"1122","75","5","2","53.46771438332764"
"1125","75","5","2","51.30333720737175"
"1097","70","50","16","87.82760629004078"
"1129","75","5","2","50.376065518970414"
"1098","70","50","15","86.88621573654112"
"1128","75","5","2","51.49367088607595"
"1127","75","5","2","51.61553524804178"
"1124","75","5","3","52.25334957369062"
"1130","75","5","2","52.57112564057253"
"1126","75","5","3","51.75077239958805"
"1123","75","5","4","51.56973751930005"
"1133","75","5","2","50.93792633015006"
"1099","70","50","16","87.71363463729585"
"1095","70","50","18","88.62812440373975"
"1131","75","5","3","51.21227115289461"
"1132","75","5","3","52.519986096628436"
"1136","75","5","2","51.632549484012856"
"1134","75","5","3","50.22362100380984"
"1138","75","5","2","51.721809588116145"
"1094","70","50","19","87.47931605074463"
"1140","75","5","2","50.26970593353054"
"1135","75","5","3","51.966730202737835"
"1142","75","10","2","51.84140676841407"
"1143","75","10","2","52.79690912145137"
"1137","75","5","3","51.46227982718511"
"1144","75","10","2","51.64741847826087"
"1145","75","10","2","51.474530831099194"
"1141","75","10","3","52.233315817130844"
"1139","75","5","3","52.164767747589835"
"1146","75","10","3","51.67224080267558"
"1147","75","10","3","52.57499566499047"
"1149","75","10","3","51.73562412342216"
"1150","75","10","2","52.189592993302426"
"1151","75","10","2","51.66461159062885"
"1152","75","10","2","51.41271442986882"
"1100","70","50","20","87.64379214597382"
"1148","75","10","3","50.75445816186557"
"1153","75","10","2","51.608210764506225"
"1160","75","10","2","52.235772357723576"
"1096","70","50","25","87.56598240469208"
"1155","75","10","3","51.508844953173785"
"1156","75","10","3","50.932218156473255"
"1157","75","10","3","51.97090170867873"
"1154","75","10","3","52.01212325307291"
"1159","75","10","3","51.73160173160173"
"1162","75","15","3","54.53167115902965"
"1158","75","10","4","50.92055915444937"
"1161","75","15","5","54.086956521739125"
"1163","75","15","3","54.75409836065573"
"1167","75","15","4","53.587290741373415"
"1170","75","15","4","53.83699166241279"
"1165","75","15","5","55.17670040845321"
"1176","75","15","4","53.542352329811195"
"1166","75","15","6","53.574390446176814"
"1168","75","15","6","54.04704254583189"
"1164","75","15","6","54.71240471240472"
"1169","75","15","5","54.26992632283992"
"1172","75","15","6","53.985765124555165"
"1180","75","15","4","54.288135593220346"
"1174","75","15","5","54.00667779632721"
"1178","75","15","4","53.43104596935376"
"1173","75","15","6","53.98557100123175"
"1179","75","15","5","54.03800475059383"
"1175","75","15","6","54.56005711226128"
"1171","75","15","6","54.792440094498815"
"1177","75","15","6","53.66523605150214"
"1183","75","20","7","57.624686042339434"
"1182","75","20","7","57.34939759036145"
"1184","75","20","5","58.58060038174562"
"1181","75","20","8","58.22046974112807"
"1193","75","20","5","57.81276451667513"
"1185","75","20","6","58.606198564174406"
"1186","75","20","6","57.12839547831955"
"1194","75","20","5","58.53573907009022"
"1191","75","20","7","57.23571672938762"
"1188","75","20","8","57.298136645962735"
"1195","75","20","7","57.56811301715439"
"1198","75","20","6","57.7073807968648"
"1189","75","20","8","57.923585361921646"
"1196","75","20","7","59.235886065154354"
"1192","75","20","8","57.758330528441604"
"1190","75","20","9","58.35382849647483"
"1197","75","20","10","57.570061517429934"
"1201","75","25","7","60.97844112769486"
"1202","75","25","7","62.08546444481109"
"1199","75","20","9","57.357804232804234"
"1204","75","25","8","63.539296341676874"
"1203","75","25","8","61.68646478166304"
"1200","75","20","12","57.15255387748176"
"1187","75","20","15","59.16990045554243"
"1208","75","25","7","60.73388203017832"
"1206","75","25","7","61.502736772267376"
"1210","75","25","8","64.17857773072171"
"1205","75","25","10","61.06722836580657"
"1209","75","25","8","60.49152542372881"
"1213","75","25","7","60.370741482965926"
"1216","75","25","6","60.53711939787889"
"1207","75","25","10","61.32672251666952"
"1211","75","25","9","60.080712964519925"
"1212","75","25","9","62.061252580867176"
"1215","75","25","9","61.44538914323087"
"1218","75","25","7","59.7507578309195"
"1214","75","25","10","61.05004101722723"
"1220","75","25","6","61.08658743633276"
"1219","75","25","9","60.35099676265122"
"1217","75","25","9","60.84388185654008"
"1222","75","30","10","73.36504161712247"
"1221","75","30","12","71.98713608666215"
"1224","75","30","11","72.68563951586523"
"1227","75","30","12","71.36548913043478"
"1229","75","30","12","72.62550881953868"
"1230","75","30","12","71.35216446598697"
"1228","75","30","14","72.24347826086957"
"1234","75","30","11","74.21846927775782"
"1225","75","30","14","72.534516765286"
"1232","75","30","12","71.78613996254045"
"1231","75","30","12","71.92829794639749"
"1235","75","30","12","69.9734278122232"
"1239","75","30","10","74.24499491007805"
"1236","75","30","13","71.61550075490689"
"1223","75","30","20","72.73188896411645"
"1226","75","30","19","71.9566712517194"
"1240","75","30","13","72.76029055690073"
"1238","75","30","15","72.1341874578557"
"1237","75","30","14","73.43962008141112"
"1233","75","30","20","72.23829787234042"
"1241","75","35","12","80.05982053838484"
"1242","75","35","12","77.75004160426028"
"1244","75","35","10","78.6334589546125"
"1249","75","35","11","77.83259612112964"
"1245","75","35","13","77.67192101160575"
"1247","75","35","13","77.29951777103055"
"1243","75","35","15","78.92361691459135"
"1246","75","35","14","78.27812284334024"
"1252","75","35","12","77.38801054018445"
"1248","75","35","14","78.56795723311194"
"1251","75","35","14","79.394861392833"
"1250","75","35","14","78.13320209973753"
"1253","75","35","15","78.63145258103242"
"1257","75","35","13","77.42357364721269"
"1258","75","35","11","77.40152038700761"
"1260","75","35","10","77.9539641943734"
"1254","75","35","16","77.44588018123846"
"1259","75","35","14","79.01444350042482"
"1256","75","35","18","78.87299672583147"
"1263","75","40","12","80.82239720034995"
"1261","75","40","15","80.21694214876032"
"1266","75","40","14","81.31720430107528"
"1265","75","40","14","79.7892231854496"
"1255","75","35","24","79.11111111111111"
"1264","75","40","13","80.02419215482979"
"1268","75","40","14","79.26050420168067"
"1272","75","40","11","80.80357142857143"
"1262","75","40","19","81.40047473719905"
"1267","75","40","14","80.0623592586177"
"1273","75","40","11","81.02715080143932"
"1274","75","40","13","80.97367968346809"
"1271","75","40","15","79.82100641675109"
"1269","75","40","19","80.54884363134278"
"1270","75","40","17","80.0852514919011"
"1275","75","40","13","80.25541925726769"
"1276","75","40","13","80.75228736021688"
"1280","75","40","13","79.34272300469483"
"1278","75","40","17","81.3317274604267"
"1279","75","40","15","80.54711246200608"
"1281","75","45","17","86.67334669338678"
"1282","75","45","17","87.05463182897863"
"1277","75","40","24","79.57933090427294"
"1286","75","45","15","86.7384134698837"
"1284","75","45","16","85.95694584594685"
"1289","75","45","15","87.12453594330071"
"1288","75","45","15","86.98896820246593"
"1285","75","45","17","88.19133034379672"
"1290","75","45","20","88.2587582379466"
"1287","75","45","20","86.9431643625192"
"1294","75","45","14","86.33633633633634"
"1291","75","45","18","88.34901625320786"
"1296","75","45","17","87.88788788788789"
"1292","75","45","19","88.05692021006269"
"1295","75","45","18","87.25524475524476"
"1283","75","45","27","86.84784432142258"
"1297","75","45","18","87.47896331201616"
"1293","75","45","22","86.7410789785219"
"1298","75","45","16","87.13318284424379"
"1300","75","45","17","87.1790453213855"
"1304","75","50","16","87.85096238742716"
"1305","75","50","14","87.49793559042114"
"1301","75","50","20","88.09444629198536"
"1321","80","0","0","49.98508798091262"
"1303","75","50","18","87.05744822979293"
"1302","75","50","20","87.35150244584207"
"1322","80","0","0","49.305866547245856"
"1323","80","0","0","49.3984962406015"
"1324","80","0","0","49.34406678592725"
"1325","80","0","0","50.4406580493537"
"1326","80","0","0","49.95496847793455"
"1299","75","45","25","87.6212395199737"
"1328","80","0","0","50.29311940759025"
"1327","80","0","0","48.819821140595224"
"1329","80","0","0","51.04482132041187"
"1312","75","50","14","87.01590594744121"
"1331","80","0","0","50.88822512183619"
"1332","80","0","0","49.91747936984246"
"1330","80","0","0","49.848942598187314"
"1333","80","0","0","49.151541980227236"
"1335","80","0","0","50.51965657478535"
"1311","75","50","16","87.4505277044855"
"1306","75","50","22","87.10727657496338"
"1334","80","0","0","48.393512851897185"
"1307","75","50","20","88.78346323280243"
"1308","75","50","19","87.84665579119087"
"1337","80","0","0","49.52253058788421"
"1336","80","0","0","50.6639587564443"
"1340","80","0","0","50.674865026994595"
"1338","80","0","0","50.2362444749276"
"1313","75","50","17","87.36536160027354"
"1339","80","0","0","48.98193289360482"
"1309","75","50","20","87.84935241990456"
"1310","75","50","20","87.37131091283459"
"1341","80","5","2","50.657510227936875"
"1343","80","5","2","51.17469879518072"
"1342","80","5","3","51.88316679477325"
"1348","80","5","2","50.955320399764844"
"1352","80","5","2","51.63859111791731"
"1347","80","5","2","50.89351646728696"
"1344","80","5","3","51.54515451545154"
"1345","80","5","3","52.441257247482454"
"1351","80","5","2","52.32401733672097"
"1346","80","5","3","53.33433916716959"
"1350","80","5","3","52.215531882044154"
"1314","75","50","21","88.00276195408252"
"1315","75","50","19","87.50211112987671"
"1353","80","5","2","51.69716646989374"
"1354","80","5","2","51.45314353499407"
"1358","80","5","2","51.58518518518519"
"1349","80","5","4","52.48651013562783"
"1359","80","5","2","50.60132291040289"
"1356","80","5","2","50.60438740486495"
"1360","80","5","2","51.4250876390794"
"1355","80","5","3","50.92688714222157"
"1318","75","50","18","87.52154429507067"
"1361","80","10","3","51.46028037383178"
"1363","80","10","3","51.84743742550656"
"1357","80","5","4","51.697649408511296"
"1364","80","10","2","50.64629847238543"
"1316","75","50","22","87.79304769603881"
"1362","80","10","3","51.887793783169066"
"1367","80","10","2","51.8141114713602"
"1368","80","10","2","50.38930512707507"
"1317","75","50","22","88.21356615177972"
"1366","80","10","3","50.069951810974665"
"1365","80","10","3","50.47961630695443"
"1372","80","10","2","51.815032384395245"
"1375","80","10","1","51.583370853969676"
"1374","80","10","2","50.324292452830186"
"1371","80","10","2","51.32637853949329"
"1369","80","10","3","51.817621688231675"
"1379","80","10","1","52.126532465566825"
"1380","80","10","2","51.100391920410004"
"1373","80","10","3","52.758620689655174"
"1376","80","10","2","51.59319074639895"
"1319","75","50","19","87.93396868618107"
"1378","80","10","2","51.22594661700807"
"1370","80","10","4","52.04455518100543"
"1377","80","10","3","51.56629952796452"
"1383","80","15","3","52.49129183704376"
"1384","80","15","4","53.71393492940454"
"1382","80","15","4","54.0175256200802"
"1385","80","15","4","53.29803328290469"
"1381","80","15","5","54.18555454820188"
"1390","80","15","4","53.36610068513554"
"1389","80","15","4","55.13842585882011"
"1386","80","15","4","55.0949126803341"
"1391","80","15","4","55.33451223106396"
"1388","80","15","5","55.90875643855776"
"1387","80","15","5","54.40943749100848"
"1395","80","15","4","54.64805464805465"
"1397","80","15","4","54.50681518393669"
"1394","80","15","5","54.66403761565296"
"1392","80","15","5","54.08767772511849"
"1393","80","15","5","53.66405307599518"
"1320","75","50","28","88.00338409475465"
"1396","80","15","5","53.51052388999846"
"1398","80","15","6","56.3431151241535"
"1399","80","15","6","53.738456955615135"
"1403","80","20","5","58.08780200353565"
"1400","80","15","7","54.62062962425649"
"1402","80","20","7","58.03651601316972"
"1401","80","20","7","57.9619683553491"
"1407","80","20","6","57.42603119078852"
"1406","80","20","6","57.72979457189984"
"1410","80","20","6","56.93365212193664"
"1405","80","20","7","56.166219839142094"
"1415","80","20","5","58.19566154288177"
"1408","80","20","7","57.61736049601417"
"1411","80","20","6","56.79375828058295"
"1412","80","20","6","57.649901827518505"
"1413","80","20","7","56.75799086757991"
"1404","80","20","10","57.067271352985635"
"1420","80","20","4","56.99560406245263"
"1419","80","20","5","58.4668884185062"
"1414","80","20","8","54.71779405428695"
"1417","80","20","7","57.74039892825245"
"1409","80","20","9","57.71038017941051"
"1418","80","20","9","58.026177222807284"
"1416","80","20","9","58.67169811320755"
"1421","80","25","7","59.73390426670745"
"1425","80","25","6","59.305064782096586"
"1429","80","25","6","57.63207961363969"
"1426","80","25","7","60.5219238355333"
"1428","80","25","8","60.3812620067977"
"1432","80","25","6","58.415251712838845"
"1430","80","25","8","59.59804935717452"
"1423","80","25","9","58.441189020054054"
"1434","80","25","7","59.470949456778456"
"1422","80","25","10","59.57287933094385"
"1424","80","25","10","59.68594292616639"
"1427","80","25","9","60.56928838951311"
"1436","80","25","8","58.1746152674082"
"1435","80","25","9","59.12472647702407"
"1438","80","25","8","59.266832189279974"
"1439","80","25","8","59.46587537091988"
"1431","80","25","11","57.90481803447768"
"1437","80","25","9","60.74793875147232"
"1433","80","25","12","60.03576218149307"
"1440","80","25","10","59.383712399119595"
"1443","80","30","13","72.24663151728178"
"1442","80","30","15","73.83333333333333"
"1441","80","30","15","72.42754178806932"
"1445","80","30","12","71.91943127962085"
"1446","80","30","11","70.91988130563797"
"1447","80","30","13","73.61786148238153"
"1452","80","30","12","71"
"1444","80","30","16","71.87452644340051"
"1454","80","30","11","71.56675948996043"
"1448","80","30","15","73.85809987819732"
"1450","80","30","13","71.08628546229605"
"1455","80","30","11","74.49911608721273"
"1456","80","30","14","71.7920868890613"
"1449","80","30","17","71.34873886119921"
"1453","80","30","13","70.92156277960035"
"1458","80","30","14","70.82152974504248"
"1451","80","30","18","72.58064516129032"
"1459","80","30","14","73.21159070329007"
"1460","80","30","14","74.55062911923307"
"1457","80","30","18","72.56410256410255"
"1462","80","35","10","76.98317307692307"
"1466","80","35","10","77.98816568047337"
"1464","80","35","11","78.25957383400387"
"1467","80","35","11","76.29709697344039"
"1470","80","35","10","78.06137503688404"
"1463","80","35","14","76.17720404870177"
"1471","80","35","12","77.46436154079466"
"1472","80","35","10","77.23835450695705"
"1469","80","35","13","77.64688558386099"
"1474","80","35","11","77.13556523044588"
"1465","80","35","17","78.41662980981866"
"1461","80","35","20","78.70079329441701"
"1473","80","35","15","77.54894851341551"
"1476","80","35","13","77.77606890187634"
"1468","80","35","16","76.60175412516723"
"1477","80","35","13","78.07799036074194"
"1475","80","35","16","76.57998185666767"
"1478","80","35","15","77.07992260753088"
"1480","80","35","13","76.90754363190538"
"1481","80","40","14","80.87448402384958"
"1482","80","40","13","80.02085816448152"
"1479","80","35","19","76.82926829268293"
"1483","80","40","15","80.31356308238426"
"1487","80","40","13","80.63160944516878"
"1486","80","40","14","81.55494425944694"
"1490","80","40","12","81.68338421282164"
"1493","80","40","11","81.33877304321547"
"1492","80","40","12","82.62032085561498"
"1484","80","40","19","80.20929516774392"
"1488","80","40","18","80"
"1496","80","40","12","80.11544888348777"
"1491","80","40","16","82.18365227711021"
"1495","80","40","15","80.05947955390334"
"1489","80","40","18","81.21849985176401"
"1485","80","40","23","80.00610500610502"
"1497","80","40","15","79.83043284248103"
"1494","80","40","19","79.98200629779578"
"1498","80","40","15","80.76454462381967"
"1500","80","40","14","79.29195674714857"
"1501","80","45","14","85.99881971082915"
"1499","80","40","18","81.05841526894159"
"1502","80","45","16","85.92814371257485"
"1507","80","45","14","87.39825143201688"
"1508","80","45","14","86.86153846153846"
"1504","80","45","17","86.4884498038646"
"1505","80","45","20","87.30230456394035"
"1512","80","45","12","87.89217179409077"
"1506","80","45","20","86.97290247790175"
"1503","80","45","22","87.59047044632086"
"1509","80","45","16","86.74499171561982"
"1514","80","45","18","87.30542541937434"
"1511","80","45","17","86.443921106859"
"1519","80","45","14","87.40059254639014"
"1515","80","45","20","87.41216923306922"
"1513","80","45","21","87.66921718658034"
"1510","80","45","21","86.20638675340035"
"1520","80","45","17","87.847866419295"
"1518","80","45","19","87.53744757339724"
"1516","80","45","19","87.34104046242774"
"1517","80","45","20","88.06966618287373"
"1522","80","50","17","87.5417806137952"
"1523","80","50","16","86.99017564751415"
"1521","80","50","18","86.96480938416423"
"1541","85","0","0","49.62676962676963"
"1542","85","0","0","48.87803590285111"
"1543","85","0","0","49.30417495029821"
"1544","85","0","0","49.496534588727606"
"1546","85","0","0","49.79445696857181"
"1545","85","0","0","49.895315362470555"
"1526","80","50","17","86.12971985383679"
"1525","80","50","17","87.84881145725676"
"1547","85","0","0","48.72392796994429"
"1548","85","0","0","50.49855680923642"
"1550","85","0","0","49.76051779935275"
"1549","85","0","0","51.06951871657755"
"1551","85","0","0","50.16414970453054"
"1524","80","50","21","87.06399757355172"
"1552","85","0","0","49.65264123738366"
"1553","85","0","0","50.5831299159208"
"1554","85","0","0","50.28447575182877"
"1556","85","0","0","49.48207171314741"
"1557","85","0","0","50"
"1555","85","0","0","50.4002065582236"
"1558","85","0","0","49.756226116747925"
"1527","80","50","20","87.62293841730973"
"1559","85","0","0","49.79344177640072"
"1560","85","0","0","50.791765637371334"
"1562","85","5","1","51.29682997118156"
"1529","80","50","20","87.49248346361996"
"1561","85","5","2","51.53745072273325"
"1563","85","5","1","51.614205004035504"
"1565","85","5","1","50.728155339805824"
"1531","80","50","19","86.78760393046107"
"1564","85","5","3","50.503333769120154"
"1566","85","5","3","50.88315217391305"
"1568","85","5","2","51.84210526315789"
"1534","80","50","16","87.25903614457832"
"1569","85","5","2","51.30299494360171"
"1567","85","5","3","51.568983402489636"
"1570","85","5","2","49.68612261252838"
"1572","85","5","2","50.45871559633027"
"1538","80","50","15","87.34103201286362"
"1533","80","50","19","87.41521143022081"
"1571","85","5","3","50.441156508755256"
"1530","80","50","23","86.85697724967396"
"1535","80","50","17","87.05003734129949"
"1528","80","50","25","86.91782853752595"
"1573","85","5","2","51.351716680183834"
"1577","85","5","1","51.04125215545828"
"1537","80","50","17","87.34306569343066"
"1576","85","5","2","50.871794871794876"
"1579","85","5","2","50.936079165552286"
"1578","85","5","2","52.41087283158039"
"1581","85","10","2","51.54255319148936"
"1575","85","5","3","51.7406962785114"
"1532","80","50","22","87.7869334902884"
"1585","85","10","2","51.73379567884769"
"1584","85","10","2","50.9545923632611"
"1539","80","50","19","86.28638983301316"
"1580","85","5","3","51.75791733762748"
"1588","85","10","2","51.9973544973545"
"1536","80","50","21","86.65154950869236"
"1582","85","10","2","51.48371848739496"
"1583","85","10","3","51.11553784860558"
"1574","85","5","2","51.482479784366575"
"1589","85","10","2","50.75173225258204"
"1540","80","50","19","87.71567615395959"
"1587","85","10","2","51.300052002080086"
"1586","85","10","3","50.7323568575233"
"1594","85","10","1","51.67291220556746"
"1590","85","10","3","51.58134548378451"
"1592","85","10","2","51.49810283919927"
"1593","85","10","2","50.3247183565275"
"1596","85","10","2","50.93962415033987"
"1595","85","10","3","50.330857528696825"
"1599","85","10","2","51.97665163173255"
"1600","85","10","2","51.08020523899541"
"1597","85","10","2","51.576846307385225"
"1598","85","10","2","50.7347152978221"
"1591","85","10","4","50.82331416623105"
"1605","85","15","4","53.981581798483205"
"1601","85","15","5","54.02542372881356"
"1606","85","15","4","54.626125538300926"
"1607","85","15","5","56.74293405114401"
"1602","85","15","4","55.49561699258261"
"1608","85","15","5","54.86009813022146"
"1612","85","15","4","54.162132752992385"
"1609","85","15","5","55.04515115822536"
"1611","85","15","5","54.70410707256266"
"1610","85","15","5","54.996024383779485"
"1617","85","15","4","55.2073732718894"
"1620","85","15","4","54.622968292033036"
"1618","85","15","5","54.571920074103474"
"1613","85","15","6","55.820421136273346"
"1604","85","15","8","54.54428589793032"
"1619","85","15","5","55.21367521367522"
"1616","85","15","5","55.44330719128008"
"1614","85","15","6","54.718477398889775"
"1603","85","15","10","54.519443360645084"
"1615","85","15","8","53.707987481289976"
"1623","85","20","6","57.325428194993414"
"1624","85","20","5","58.63789615643965"
"1627","85","20","6","57.43322475570033"
"1626","85","20","6","58.182784272051016"
"1622","85","20","8","55.85015169502704"
"1630","85","20","6","55.85763068032572"
"1625","85","20","8","56.94950546590317"
"1632","85","20","6","58.36512261580381"
"1635","85","20","6","57.36994219653179"
"1629","85","20","8","57.736598279285246"
"1633","85","20","7","58.96468050687517"
"1634","85","20","7","56.85451097263614"
"1631","85","20","7","56.64801492139622"
"1628","85","20","9","57.954397394136805"
"1637","85","20","7","58.3941605839416"
"1638","85","20","7","57.684683494119206"
"1639","85","20","7","58.09622348680807"
"1621","85","20","14","59.175882043180614"
"1636","85","20","11","56.97922216302611"
"1642","85","25","8","57.59148369926813"
"1643","85","25","7","56.400473621891855"
"1640","85","20","10","58.32328913887773"
"1644","85","25","6","56.659836065573764"
"1641","85","25","10","58.47480106100795"
"1649","85","25","7","59.4692400482509"
"1650","85","25","7","56.91468121922002"
"1645","85","25","9","59.48437082554101"
"1646","85","25","8","58.11579219436547"
"1648","85","25","9","57.532621589561096"
"1652","85","25","8","58.14881565396498"
"1657","85","25","6","59.12486659551761"
"1647","85","25","10","56.47716682199441"
"1651","85","25","9","59.46196660482374"
"1653","85","25","10","58.47591471439853"
"1654","85","25","9","58.71027297903204"
"1656","85","25","8","59.052589321557605"
"1658","85","25","7","57.32770002640613"
"1655","85","25","11","56.4751958224543"
"1660","85","25","8","58.911546610169495"
"1659","85","25","12","60.117302052785924"
"1661","85","30","13","72.828447339848"
"1662","85","30","12","72.7612438275724"
"1663","85","30","13","73.0439371948806"
"1664","85","30","16","73.66855907001893"
"1670","85","30","12","72.09767814251401"
"1668","85","30","13","72.39182373241306"
"1667","85","30","14","72.46753246753246"
"1666","85","30","14","74.97107597377554"
"1676","85","30","11","73.707805907173"
"1675","85","30","12","73.1658692185008"
"1674","85","30","12","72.96946068875894"
"1669","85","30","16","72.65124787664968"
"1672","85","30","15","73.2587228439763"
"1665","85","30","17","74.19954829281255"
"1673","85","30","13","72.2781217750258"
"1671","85","30","15","73.54106152627409"
"1680","85","30","12","73.14158129760968"
"1677","85","30","17","72.60981912144703"
"1678","85","30","15","73.01963885593779"
"1682","85","35","11","76.60174613834788"
"1679","85","30","17","74.32831983545442"
"1681","85","35","14","76.30919403772589"
"1686","85","35","13","77.4990250877421"
"1683","85","35","18","76.39841688654354"
"1690","85","35","13","76.81314278082009"
"1695","85","35","10","76.51930012020837"
"1685","85","35","15","76.24766479850547"
"1689","85","35","13","76.63514578408196"
"1684","85","35","14","76.09436435124508"
"1692","85","35","13","76.53115100316789"
"1687","85","35","16","76.50273224043715"
"1697","85","35","13","77.06726934325977"
"1691","85","35","14","76.0332726800104"
"1693","85","35","16","77.49474789915966"
"1698","85","35","13","75.11173541054782"
"1688","85","35","19","76.22552240767511"
"1696","85","35","17","77.99511002444987"
"1699","85","35","13","76.42847845893532"
"1700","85","35","15","76.74358974358975"
"1694","85","35","22","75.93965060878773"
"1701","85","40","19","82.42519273487521"
"1703","85","40","16","80.75564011959771"
"1702","85","40","21","81.60095579450419"
"1705","85","40","16","80.81056584228926"
"1704","85","40","18","81.62614587485054"
"1710","85","40","15","80.86206896551724"
"1707","85","40","18","80.16373641121997"
"1713","85","40","13","81.3641740044684"
"1706","85","40","17","83.2164198493115"
"1716","85","40","13","80.88531187122736"
"1709","85","40","17","80.43364681295716"
"1708","85","40","19","81.8659127625202"
"1714","85","40","14","80.92734869928562"
"1717","85","40","13","81.60723649711589"
"1712","85","40","20","82.14514271086651"
"1718","85","40","14","81.09166884303995"
"1715","85","40","18","81.2308512055415"
"1711","85","40","26","80.92665135755774"
"1719","85","40","17","82.50773993808049"
"1720","85","40","20","80.9882415114282"
"1724","85","45","16","86.92598595353863"
"1730","85","45","15","85.52978386926726"
"1725","85","45","19","87.95085216012683"
"1723","85","45","21","87.4351124717157"
"1726","85","45","20","86.4958172885407"
"1727","85","45","21","87.48826605873676"
"1728","85","45","18","87.27272727272727"
"1721","85","45","25","87.31157425612793"
"1731","85","45","22","87.74377031419284"
"1733","85","45","19","87.17575436739016"
"1722","85","45","26","86.19528619528619"
"1734","85","45","23","86.71301660872925"
"1735","85","45","26","86.77881456170324"
"1732","85","45","24","85.92689295039165"
"1739","85","45","18","89.14708212305254"
"1738","85","45","21","85.61509236211188"
"1729","85","45","28","86.84446723938967"
"1737","85","45","26","87.23182941099988"
"1736","85","45","31","86.37271879579059"
"1743","85","50","17","86.9342105263158"
"1741","85","50","21","86.25112222649737"
"1740","85","45","23","84.9307913293288"
"1744","85","50","17","86.39979471388247"
"1761","90","0","0","49.840104228354846"
"1762","90","0","0","49.71883786316776"
"1745","85","50","20","87.93996546686147"
"1747","85","50","17","86.42527978933508"
"1763","90","0","0","48.746940202820845"
"1742","85","50","23","85.58594266085349"
"1764","90","0","0","49.495990836197024"
"1766","90","0","0","49.20841209829867"
"1767","90","0","0","49.03765690376569"
"1746","85","50","20","86.11716446609408"
"1765","90","0","0","49.86932763126634"
"1769","90","0","0","50.14745782706146"
"1768","90","0","0","49.693613009662975"
"1750","85","50","16","86.54708520179372"
"1749","85","50","18","85.81440622972096"
"1771","90","0","0","49.57102001906578"
"1770","90","0","0","50.00584316933505"
"1772","90","0","0","49.31408803530955"
"1773","90","0","0","48.98321116103098"
"1774","90","0","0","50.309428467419"
"1775","90","0","0","50.36357134342592"
"1776","90","0","0","49.22893006575015"
"1777","90","0","0","50.27576908934919"
"1778","90","0","0","49.43148517172664"
"1779","90","0","0","49.32265284485805"
"1780","90","0","0","50.26362038664324"
"1782","90","5","1","51.316897173782316"
"1781","90","5","2","50.36950146627566"
"1784","90","5","2","50.64810369659145"
"1783","90","5","2","50.46828689982217"
"1785","90","5","2","51.41427074845769"
"1786","90","5","2","50.23169601482854"
"1787","90","5","2","49.9882491186839"
"1788","90","5","2","49.41935483870968"
"1753","85","50","20","87.68753233316089"
"1789","90","5","2","51.045378949869324"
"1751","85","50","20","87.468671679198"
"1752","85","50","17","87.3076923076923"
"1755","85","50","17","87.63102725366876"
"1790","90","5","3","50.02398081534773"
"1791","90","5","2","49.62171250150114"
"1794","90","5","2","50.47698545194371"
"1795","90","5","2","51.55952380952381"
"1800","90","5","1","52.290754113886585"
"1748","85","50","27","85.38501833420639"
"1793","90","5","3","51.48000483266885"
"1792","90","5","2","50.05897617362586"
"1796","90","5","2","51.33771415160761"
"1798","90","5","2","50.29790276453765"
"1799","90","5","2","51.551170807084276"
"1801","90","10","2","51.092174747959675"
"1797","90","5","3","50.602270094973356"
"1802","90","10","2","52.10054283691291"
"1803","90","10","2","51.420047732696894"
"1806","90","10","1","50.32569360675513"
"1805","90","10","1","50.949330227140365"
"1758","85","50","18","86.80142687277052"
"1756","85","50","21","87.73151188756076"
"1804","90","10","2","50.91683426002602"
"1807","90","10","2","51.174778230640136"
"1754","85","50","23","88.13229571984435"
"1810","90","10","2","50.278139424783994"
"1812","90","10","2","51.06332138590203"
"1809","90","10","2","50.36325287086947"
"1813","90","10","2","49.49958789591428"
"1811","90","10","2","50.19015788867121"
"1814","90","10","2","51.6090297790586"
"1817","90","10","2","49.75528232063985"
"1808","90","10","3","51.13421550094518"
"1815","90","10","2","49.469796258787085"
"1820","90","10","2","51.305293691080486"
"1819","90","10","2","50.92009685230025"
"1818","90","10","2","50.540921919096895"
"1760","85","50","17","87.39010628526441"
"1816","90","10","3","51.0482180293501"
"1757","85","50","26","87.720207253886"
"1759","85","50","21","87.36661836385193"
"1821","90","15","6","54.416919841084365"
"1829","90","15","5","55.646043515254654"
"1834","90","15","4","55.11356808075952"
"1822","90","15","7","55.124094525590785"
"1826","90","15","6","54.04250122129947"
"1828","90","15","5","55.18632803228104"
"1823","90","15","6","56.116318192742135"
"1825","90","15","7","54.76020042949177"
"1833","90","15","6","55.21116763279309"
"1835","90","15","7","54.818914691372875"
"1836","90","15","6","53.75414495499763"
"1827","90","15","7","55.361566591954706"
"1832","90","15","8","53.26230096971148"
"1824","90","15","9","54.0004776689754"
"1837","90","15","8","53.770569432934764"
"1831","90","15","9","55.54622856457608"
"1838","90","15","7","54.39971499821874"
"1830","90","15","10","55.26776338816941"
"1839","90","15","7","55.31170866996262"
"1841","90","20","5","56.859756097560975"
"1842","90","20","5","58.8169780967702"
"1843","90","20","6","57.20139809569724"
"1840","90","15","9","54.05184493227464"
"1845","90","20","7","56.84485006518904"
"1846","90","20","7","55.64459109120905"
"1844","90","20","8","55.634722717016984"
"1852","90","20","6","55.734382451120645"
"1851","90","20","7","57.17339667458432"
"1847","90","20","8","55.78808897392968"
"1849","90","20","8","56.958480457810786"
"1855","90","20","6","55.62080536912751"
"1850","90","20","7","57.626717195641874"
"1848","90","20","9","56.91558827021252"
"1856","90","20","7","56.85661338892749"
"1860","90","20","6","55.29746385399383"
"1853","90","20","9","56.11768927161823"
"1854","90","20","10","57.34846711912006"
"1859","90","20","9","55.007068803016026"
"1857","90","20","10","56.87425149700599"
"1858","90","20","9","56.45219482862297"
"1864","90","25","7","55.30878859857482"
"1866","90","25","6","55.515716505318515"
"1865","90","25","7","57.48495930163973"
"1862","90","25","9","56.79315999063013"
"1868","90","25","6","58.512814342437736"
"1863","90","25","8","55.71462658076831"
"1867","90","25","7","57.88384268842079"
"1861","90","25","10","55.49696205433911"
"1871","90","25","6","57.33552245807435"
"1874","90","25","6","58.60002397219226"
"1872","90","25","7","57.410903941468014"
"1870","90","25","8","57.3438049466651"
"1875","90","25","6","54.820308043354245"
"1873","90","25","8","57.15965201034564"
"1869","90","25","10","58.772336969134365"
"1876","90","25","8","56.38083973979894"
"1880","90","25","6","56.87931444894073"
"1877","90","25","7","56.26818763822605"
"1879","90","25","7","56.63241475945819"
"1878","90","25","8","57.220643939393945"
"1881","90","30","12","72.60879961740794"
"1889","90","30","11","74.07142857142858"
"1882","90","30","14","75.67375044520955"
"1884","90","30","15","73.92948639746248"
"1885","90","30","15","72.71155176389209"
"1886","90","30","14","73.69288742345738"
"1888","90","30","15","74.53505007153076"
"1883","90","30","14","72.84112595419847"
"1892","90","30","14","74.46606549596582"
"1899","90","30","11","71.62560414947542"
"1895","90","30","14","75.88702978521418"
"1898","90","30","11","74.15625364942193"
"1887","90","30","19","73.43550446998724"
"1894","90","30","17","73.75312462802047"
"1890","90","30","19","75.12484032052026"
"1891","90","30","19","76.27039627039626"
"1896","90","30","18","73.96929029137952"
"1901","90","35","15","77.40253584547932"
"1897","90","30","17","74.68805704099822"
"1893","90","30","24","74.2433234421365"
"1900","90","30","18","73.27596369209006"
"1902","90","35","14","74.95064452444548"
"1903","90","35","13","75.10618216139689"
"1904","90","35","12","76.48026315789474"
"1906","90","35","13","76.79089748055266"
"1909","90","35","13","75.77174929840973"
"1911","90","35","13","74.88541544247268"
"1907","90","35","16","76.13781864742172"
"1915","90","35","12","75.1267240363079"
"1913","90","35","14","74.47795823665894"
"1910","90","35","16","75.47706530757378"
"1908","90","35","18","75.36803060159963"
"1916","90","35","13","76.21836925960638"
"1918","90","35","12","75.67216981132076"
"1912","90","35","17","75.81367924528301"
"1914","90","35","19","73.93027865220941"
"1917","90","35","16","77.63636363636364"
"1920","90","35","13","76.0398359695372"
"1919","90","35","21","76.95704057279237"
"1921","90","40","18","81.93297144205806"
"1927","90","40","14","81.40085186938003"
"1905","90","35","34","74.61970512520477"
"1925","90","40","18","81.64257076904386"
"1932","90","40","14","81.92499406598624"
"1924","90","40","21","83.26226012793177"
"1928","90","40","17","82.50180766449748"
"1934","90","40","15","81.03385950114472"
"1922","90","40","24","82.99031476997578"
"1923","90","40","23","83.52430346158485"
"1933","90","40","15","81.4380478559583"
"1926","90","40","21","82.5841374441045"
"1929","90","40","20","82.52962571864367"
"1931","90","40","21","81.36056037041433"
"1936","90","40","16","82.39069880101731"
"1935","90","40","20","83.43125734430082"
"1938","90","40","16","82.11880711880711"
"1937","90","40","16","83.10104529616724"
"1940","90","40","15","82.80611649352166"
"1939","90","40","17","80.9640522875817"
"1930","90","40","30","83.72660699755899"
"1947","90","45","18","86.97585005406704"
"1948","90","45","15","86.79464805119255"
"1945","90","45","18","86.26080776975009"
"1943","90","45","19","85.85280373831776"
"1944","90","45","17","86.36631678263946"
"1942","90","45","22","86.22075159536753"
"1953","90","45","15","86.53357531760436"
"1951","90","45","19","87.80656303972366"
"1946","90","45","22","87.03395867964853"
"1954","90","45","17","86.94100856327307"
"1941","90","45","25","86.8424135910955"
"1952","90","45","23","86.24400514680079"
"1950","90","45","24","87.4153630632734"
"1949","90","45","27","86.53687315634218"
"1956","90","45","19","85.94186046511628"
"1957","90","45","19","87.4746993689725"
"1955","90","45","26","87.08691050217571"
"1959","90","45","25","86.01222581805106"
"1960","90","45","24","87.08920187793427"
"1963","90","50","18","87.60251990966361"
"1961","90","50","23","86.89631095077388"
"1981","95","0","0","50.19296964639616"
"1967","90","50","17","87.0409604519774"
"1982","95","0","0","49.92714404662781"
"1958","90","45","30","88.08638272345532"
"1983","95","0","0","49.523095059479154"
"1966","90","50","22","86.58278457196613"
"1970","90","50","21","86.21714829349506"
"1984","95","0","0","50.551314673452076"
"1964","90","50","23","86.73278879813302"
"1986","95","0","0","49.48288730141806"
"1985","95","0","0","50.29159155974976"
"1988","95","0","0","50.69667738478027"
"1987","95","0","0","50.074930421751226"
"1990","95","0","0","50.66525871172123"
"1989","95","0","0","49.84644710367468"
"1974","90","50","17","86.10456900612341"
"1991","95","0","0","50.14966859097713"
"1992","95","0","0","49.76768743400211"
"1993","95","0","0","49.77385311221193"
"1972","90","50","20","86.12348056324467"
"1975","90","50","17","86.18245206275421"
"1994","95","0","0","50.69673438995852"
"1995","95","0","0","49.627580336241756"
"1997","95","0","0","50.323607427055705"
"1998","95","0","0","50.291529736033084"
"1999","95","0","0","49.58422174840085"
"2000","95","0","0","49.27830642574575"
"1962","90","50","30","85.28727611072343"
"1996","95","0","0","50.33169270276054"
"1965","90","50","27","86.9653767820774"
"1968","90","50","27","89.17708087715161"
"2001","95","5","1","50.17562533262374"
"2003","95","5","1","49.76570820021299"
"2004","95","5","1","50.64502257579016"
"2007","95","5","1","50.66596748820137"
"2002","95","5","2","51.05189340813464"
"1971","90","50","28","85.6547619047619"
"2011","95","5","1","49.829642248722315"
"2006","95","5","2","51.38121546961326"
"2008","95","5","2","49.87720234917245"
"2009","95","5","2","50.49151993086313"
"1969","90","50","27","85.6266226103375"
"2014","95","5","1","50.316082717239894"
"2010","95","5","2","49.893093863587765"
"1973","90","50","26","86.12689393939394"
"2005","95","5","3","50.980183251651404"
"2012","95","5","3","49.02506963788301"
"2020","95","5","1","50.59598494353826"
"2022","95","10","1","51.74511687479987"
"2015","95","5","2","50.366185394433984"
"2016","95","5","2","50.1341345637944"
"2019","95","5","2","49.845267314054"
"2013","95","5","4","50.95446304788312"
"2018","95","5","2","49.63944856839873"
"2021","95","10","2","50.811915259705344"
"2017","95","5","3","51.431021545717655"
"2028","95","10","1","50.39855457540653"
"2025","95","10","2","51.41768937790944"
"2023","95","10","3","50.116254491650814"
"2026","95","10","2","50.61649659863946"
"2027","95","10","2","49.76192995450217"
"2032","95","10","1","51.50547930630918"
"2031","95","10","1","50.20059121621622"
"1976","90","50","26","87.54924197206637"
"2029","95","10","2","51.2999365884591"
"2033","95","10","2","50.254560882477726"
"2024","95","10","4","50.47831632653062"
"2036","95","10","2","49.904862579281186"
"2030","95","10","3","51.30131189166314"
"2034","95","10","2","51.06405846947549"
"2040","95","10","1","49.55457765375121"
"2037","95","10","2","50.54583995760466"
"2035","95","10","2","51.024936601859686"
"2038","95","10","2","49.55827567855242"
"2039","95","10","2","50.28547261577501"
"1980","90","50","18","86.17876704346813"
"1977","90","50","26","86.07579755337011"
"2041","95","15","5","55.34968405269358"
"1979","90","50","23","87.65475356225181"
"2042","95","15","6","54.76240984302079"
"1978","90","50","22","86.33938100320171"
"2043","95","15","7","57.82965568702697"
"2055","95","15","5","55.214331413947534"
"2044","95","15","8","55.34685165421558"
"2045","95","15","8","55.29487042764211"
"2048","95","15","7","55.87184760255439"
"2049","95","15","7","57.09302325581396"
"2053","95","15","7","55.191082802547776"
"2047","95","15","9","55.99188987301249"
"2050","95","15","8","55.98941798941799"
"2046","95","15","10","55.22981886713433"
"2058","95","15","7","57.421833315547964"
"2056","95","15","8","55.36241045090603"
"2054","95","15","9","55.04499735309688"
"2051","95","15","12","55.16307179326873"
"2060","95","15","7","54.9652118912081"
"2052","95","15","13","55.81937672249311"
"2065","95","20","6","55.84763948497854"
"2059","95","15","11","55.62003008811519"
"2061","95","20","9","55.96005154639175"
"2057","95","15","14","55.49822637858755"
"2063","95","20","8","57.139773340528876"
"2070","95","20","6","56.356473594548554"
"2073","95","20","5","54.635726978154075"
"2064","95","20","9","54.8326359832636"
"2062","95","20","11","56.245349208036565"
"2066","95","20","10","54.63147933971191"
"2068","95","20","10","55.214073760067826"
"2071","95","20","9","57.00452583938532"
"2069","95","20","11","56.94770544290289"
"2075","95","20","9","55.29028757460662"
"2072","95","20","10","55.274666666666675"
"2074","95","20","11","55.1400895740027"
"2077","95","20","7","54.58813486982501"
"2076","95","20","9","56.130615729377865"
"2067","95","20","14","55.85614600107354"
"2078","95","20","8","55.930930930930934"
"2082","95","25","6","56.20956623183795"
"2079","95","20","8","55.09943635010103"
"2084","95","25","6","54.14317625784491"
"2085","95","25","7","56.12690301288193"
"2086","95","25","8","55.56848228450555"
"2081","95","25","9","56.95172856684149"
"2080","95","20","10","55.14745597925894"
"2087","95","25","9","55.390414647280565"
"2092","95","25","7","57.48281332628239"
"2095","95","25","6","54.462659380692166"
"2093","95","25","7","55.84705257567711"
"2083","95","25","12","56.11602858056948"
"2088","95","25","10","56.67122279465882"
"2094","95","25","7","54.24107142857143"
"2091","95","25","10","56.612056965413856"
"2089","95","25","10","55.50381033022862"
"2097","95","25","8","56.17785378366823"
"2098","95","25","7","56.920668058455114"
"2096","95","25","9","56.128268589260735"
"2090","95","25","13","55.956447480785656"
"2099","95","25","10","56.024484536082475"
"2100","95","25","11","55.68254646443068"
"2102","95","30","13","73.97797076890488"
"2104","95","30","13","74.42403652192378"
"2101","95","30","16","75.31823085221143"
"2113","95","30","14","75.1641601355645"
"2107","95","30","17","76.23645531595322"
"2106","95","30","16","76.00085178875638"
"2105","95","30","20","75.16125621232949"
"2112","95","30","19","74.60453185121847"
"2115","95","30","16","76.50999685962525"
"2111","95","30","18","73.9778534923339"
"2110","95","30","19","74.3004181408813"
"2103","95","30","25","76.67660208643815"
"2118","95","30","15","74.92093611638204"
"2119","95","30","15","75.35600425079703"
"2108","95","30","22","74.69069965870307"
"2116","95","30","21","74.4791104393825"
"2120","95","30","16","75.04538174052323"
"2117","95","30","20","73.43782654127482"
"2109","95","30","30","74.92345053320662"
"2123","95","35","15","77.12681428117385"
"2114","95","30","31","74.74631237577152"
"2125","95","35","14","75.06130717560508"
"2127","95","35","15","77.93884245053434"
"2124","95","35","19","76.59186083968646"
"2128","95","35","16","75.66120569654139"
"2130","95","35","15","75.60401967072909"
"2129","95","35","17","74.58003169572109"
"2136","95","35","13","75.77181925008011"
"2135","95","35","15","74.8527364249759"
"2133","95","35","18","75.50673883052107"
"2131","95","35","18","75.44008483563096"
"2134","95","35","17","76.29027213012199"
"2121","95","35","31","76.57819604525749"
"2137","95","35","16","75.02920870950611"
"2132","95","35","22","75.97354886113152"
"2138","95","35","18","74.38894792773645"
"2140","95","35","17","77.41970021413276"
"2139","95","35","16","77.26551760600613"
"2141","95","40","17","80.95491280306253"
"2143","95","40","19","83.66257341163909"
"2145","95","40","19","82.61696060830077"
"2149","95","40","18","84.41872698579694"
"2147","95","40","19","82.36346416920972"
"2151","95","40","18","83.62170875873186"
"2144","95","40","26","83.39719029374201"
"2142","95","40","30","84.24358564888746"
"2152","95","40","19","83.67238821784277"
"2150","95","40","21","84.43761263648892"
"2148","95","40","26","85.17102188230295"
"2146","95","40","26","83.40940452181297"
"2154","95","40","22","83.54470513633481"
"2153","95","40","21","84.39513998943477"
"2156","95","40","25","84.13517212338141"
"2159","95","40","17","83.85688425087851"
"2158","95","40","25","82.96906345686833"
"2126","95","35","65","74.19080972089567"
"2122","95","35","71","73.73031598706852"
"2155","95","40","34","83.23625966324262"
"2160","95","40","19","83.66804802890235"
"2161","95","45","20","85.21620772693959"
"2157","95","40","28","82.53500368459838"
"2163","95","45","21","86.87860038404096"
"2162","95","45","23","86.34347275031685"
"2167","95","45","19","87.25856365382563"
"2164","95","45","21","86.53280067283431"
"2165","95","45","25","87.71015109597788"
"2166","95","45","23","85.49076874934808"
"2173","95","45","19","87.58540943971408"
"2174","95","45","16","85.1063829787234"
"2171","95","45","20","86.48938451640575"
"2168","95","45","27","87.0570602719195"
"2169","95","45","28","86.28461043142305"
"2180","95","45","19","86.50306748466258"
"2175","95","45","25","85.37604456824512"
"2177","95","45","23","86.79405520169851"
"2178","95","45","24","86.60054863895337"
"2176","95","45","23","86.6751135043818"
"2179","95","45","26","87.09954848419694"
"2170","95","45","37","87.36102370463604"
"2182","95","50","19","87.6801683324566"
"2172","95","45","37","87.09779179810727"
"2183","95","50","26","86.7513611615245"
"2181","95","50","31","86.64829924764226"
"2186","95","50","20","86.40859300223333"
"2191","95","50","20","86.02573646708497"
"2184","95","50","28","87.43819042609154"
"2188","95","50","22","86.56401603037334"
"2185","95","50","28","85.85386576040783"
"2189","95","50","22","84.113235449456"
"2187","95","50","23","87.25552050473186"
"2190","95","50","31","88.00126970690933"
"2200","95","50","20","86.3554376657825"
"2194","95","50","23","87.01530077551875"
"2197","95","50","26","86.22542172558289"
"2196","95","50","26","87.64068581045545"
"2198","95","50","24","86.90312334568556"
"2195","95","50","28","87.19403298665827"
"2193","95","50","35","87.0960929250264"
"2199","95","50","29","85.04383151592901"
"2192","95","50","39","86.62420382165605"
