"BehaviorSpace results (NetLogo 6.0.2)"
"BusinessInvestor.nlogo"
"vary-time-horizon"
"02/20/2018 04:06:18:929 -0600"
"min-pxcor","max-pxcor","min-pycor","max-pycor"
"0","18","0","18"
"[run number]","profit-multiplier","risk-multiplier","vision-mode","sense-radius","failure-max","turtle-coloring-mode","failure-min","max-ticks","color-patches-by","num-investors","time-horizon","[step]","mean [wealth] of turtles","mean [failures] of turtles","mean [profit] of turtles","mean [p-failure] of turtles"
"3","1","1","""neighbors""","2","0.1","""wealth""","0.01","25","""exp utility""","100","1","24","141876.20117088332","0.94","7665.334935189802","0.03350393109046075"
"13","1","1","""neighbors""","2","0.1","""wealth""","0.01","25","""exp utility""","100","1","24","130131.69948687498","0.88","7433.3832089941","0.034478586120837595"
"11","1","1","""neighbors""","2","0.1","""wealth""","0.01","25","""exp utility""","100","1","24","134865.9338500349","0.98","7621.267824121602","0.03355880995278576"
"4","1","1","""neighbors""","2","0.1","""wealth""","0.01","25","""exp utility""","100","1","24","124529.18641830198","0.98","7330.749811235673","0.03416608046506574"
"14","1","1","""neighbors""","2","0.1","""wealth""","0.01","25","""exp utility""","100","1","24","125482.6063709017","1.09","7768.8096999927475","0.035566653447812485"
"15","1","1","""neighbors""","2","0.1","""wealth""","0.01","25","""exp utility""","100","1","24","138791.8869582214","0.94","7624.856489718789","0.033040385957210844"
"10","1","1","""neighbors""","2","0.1","""wealth""","0.01","25","""exp utility""","100","1","24","130217.20584402424","0.93","7394.493031197937","0.035889425405006704"
"16","1","1","""neighbors""","2","0.1","""wealth""","0.01","25","""exp utility""","100","1","24","136246.61947174318","0.89","7386.844720366826","0.03129323009160768"
"8","1","1","""neighbors""","2","0.1","""wealth""","0.01","25","""exp utility""","100","1","24","120467.9587399961","1.24","7333.153830864667","0.03839253175682243"
"7","1","1","""neighbors""","2","0.1","""wealth""","0.01","25","""exp utility""","100","1","24","134574.41852419009","0.96","7434.278874317065","0.033839452327822456"
"18","1","1","""neighbors""","2","0.1","""wealth""","0.01","25","""exp utility""","100","1","24","121421.99007901516","1.16","8051.531699662187","0.0346003063711039"
"17","1","1","""neighbors""","2","0.1","""wealth""","0.01","25","""exp utility""","100","1","24","134491.13451155505","0.97","7583.0035112415335","0.03427777552086586"
"6","1","1","""neighbors""","2","0.1","""wealth""","0.01","25","""exp utility""","100","1","24","130421.52994734442","1.08","7765.0324810790735","0.03648699218555695"
"21","1","1","""neighbors""","2","0.1","""wealth""","0.01","25","""exp utility""","100","2","24","136731.90853542712","1.03","7480.911785935248","0.033905719261650195"
"20","1","1","""neighbors""","2","0.1","""wealth""","0.01","25","""exp utility""","100","1","24","122652.67135781716","1.07","7128.907968088035","0.03449968228309807"
"22","1","1","""neighbors""","2","0.1","""wealth""","0.01","25","""exp utility""","100","2","24","119044.61112893431","1.18","7480.308570672304","0.04050670995962074"
"24","1","1","""neighbors""","2","0.1","""wealth""","0.01","25","""exp utility""","100","2","24","131436.9009758777","1.03","7011.558417198925","0.03359595723191783"
"26","1","1","""neighbors""","2","0.1","""wealth""","0.01","25","""exp utility""","100","2","24","128404.49557918755","1.18","7503.561145191152","0.0345099502222704"
"23","1","1","""neighbors""","2","0.1","""wealth""","0.01","25","""exp utility""","100","2","24","124617.78797950454","0.97","7444.495892211303","0.034912617453812925"
"25","1","1","""neighbors""","2","0.1","""wealth""","0.01","25","""exp utility""","100","2","24","107037.86457043802","1.32","7287.748738806203","0.039898324931803966"
"27","1","1","""neighbors""","2","0.1","""wealth""","0.01","25","""exp utility""","100","2","24","126780.66140198975","1.02","7153.533395700365","0.03409292622863456"
"34","1","1","""neighbors""","2","0.1","""wealth""","0.01","25","""exp utility""","100","2","24","135840.56283269537","0.9","7476.679257037408","0.030373521980790658"
"12","1","1","""neighbors""","2","0.1","""wealth""","0.01","25","""exp utility""","100","1","24","132657.32230044043","1.07","7736.992895233502","0.035134137164628265"
"9","1","1","""neighbors""","2","0.1","""wealth""","0.01","25","""exp utility""","100","1","24","134417.90724197484","0.98","7939.994028930603","0.035617225126141475"
"19","1","1","""neighbors""","2","0.1","""wealth""","0.01","25","""exp utility""","100","1","24","120111.70856451835","1.23","7504.953735134439","0.03820306125277275"
"28","1","1","""neighbors""","2","0.1","""wealth""","0.01","25","""exp utility""","100","2","24","128395.2833175486","1.15","7742.744884074516","0.03912845997623605"
"5","1","1","""neighbors""","2","0.1","""wealth""","0.01","25","""exp utility""","100","1","24","143850.05591728556","0.92","7770.3565932936435","0.03174280076855615"
"32","1","1","""neighbors""","2","0.1","""wealth""","0.01","25","""exp utility""","100","2","24","135147.37684279252","0.92","7515.508470353125","0.031517796184634905"
"30","1","1","""neighbors""","2","0.1","""wealth""","0.01","25","""exp utility""","100","2","24","133642.4189148278","0.88","7661.632178803331","0.034623383433472404"
"33","1","1","""neighbors""","2","0.1","""wealth""","0.01","25","""exp utility""","100","2","24","129535.15940154628","0.85","7472.798391313038","0.03254827290698748"
"29","1","1","""neighbors""","2","0.1","""wealth""","0.01","25","""exp utility""","100","2","24","139711.18206644407","0.9","7477.41663742699","0.03540995036452614"
"31","1","1","""neighbors""","2","0.1","""wealth""","0.01","25","""exp utility""","100","2","24","135528.9848602271","0.84","7272.537803672104","0.031673341732094705"
"36","1","1","""neighbors""","2","0.1","""wealth""","0.01","25","""exp utility""","100","2","24","136333.07875647623","1","7436.5306351013305","0.03581152908868373"
"37","1","1","""neighbors""","2","0.1","""wealth""","0.01","25","""exp utility""","100","2","24","126603.95361478107","0.92","6959.117350821777","0.03145240219421043"
"2","1","1","""neighbors""","2","0.1","""wealth""","0.01","25","""exp utility""","100","1","24","136721.62867329753","0.95","7725.174377586793","0.036356473869857464"
"38","1","1","""neighbors""","2","0.1","""wealth""","0.01","25","""exp utility""","100","2","24","122282.14991846151","1.13","7993.294676637323","0.036704377417159845"
"39","1","1","""neighbors""","2","0.1","""wealth""","0.01","25","""exp utility""","100","2","24","122806.84755042264","1.18","7580.613671917407","0.037224440424953945"
"35","1","1","""neighbors""","2","0.1","""wealth""","0.01","25","""exp utility""","100","2","24","130466.9252911433","0.9","7524.857757521861","0.03386680226881022"
"40","1","1","""neighbors""","2","0.1","""wealth""","0.01","25","""exp utility""","100","2","24","115578.16929132739","1.16","7480.74153850815","0.04083101281718746"
"42","1","1","""neighbors""","2","0.1","""wealth""","0.01","25","""exp utility""","100","3","24","130915.29600355301","0.91","7554.488904175691","0.03401463533696302"
"41","1","1","""neighbors""","2","0.1","""wealth""","0.01","25","""exp utility""","100","3","24","122430.42364150101","1.15","7791.932014597068","0.03452292376500539"
"45","1","1","""neighbors""","2","0.1","""wealth""","0.01","25","""exp utility""","100","3","24","129988.95221116919","0.95","7494.319479987157","0.03307228330351209"
"53","1","1","""neighbors""","2","0.1","""wealth""","0.01","25","""exp utility""","100","3","24","140413.38562429082","0.88","7195.37033173721","0.032533787133335886"
"54","1","1","""neighbors""","2","0.1","""wealth""","0.01","25","""exp utility""","100","3","24","113454.84122372919","1.17","7464.370811143761","0.03895040757249003"
"51","1","1","""neighbors""","2","0.1","""wealth""","0.01","25","""exp utility""","100","3","24","137695.82658897887","0.9","8005.206713966916","0.031581151606756584"
"55","1","1","""neighbors""","2","0.1","""wealth""","0.01","25","""exp utility""","100","3","24","122844.20962431395","1.07","7355.139422784131","0.0339235086069256"
"49","1","1","""neighbors""","2","0.1","""wealth""","0.01","25","""exp utility""","100","3","24","124989.60719283677","0.99","7169.403013034959","0.03707575812599794"
"57","1","1","""neighbors""","2","0.1","""wealth""","0.01","25","""exp utility""","100","3","24","142728.67682571046","0.79","7060.266719370982","0.032077139453130135"
"48","1","1","""neighbors""","2","0.1","""wealth""","0.01","25","""exp utility""","100","3","24","138180.1200419096","0.7","7397.914121079558","0.032350379203667116"
"59","1","1","""neighbors""","2","0.1","""wealth""","0.01","25","""exp utility""","100","3","24","126826.81144867215","0.95","7288.536488434774","0.034983464744207965"
"60","1","1","""neighbors""","2","0.1","""wealth""","0.01","25","""exp utility""","100","3","24","130479.82975696106","0.81","7307.28387974637","0.032133513027238124"
"61","1","1","""neighbors""","2","0.1","""wealth""","0.01","25","""exp utility""","100","4","24","146313.66776935465","0.85","7461.482206995308","0.03004663155254701"
"62","1","1","""neighbors""","2","0.1","""wealth""","0.01","25","""exp utility""","100","4","24","124345.43922229363","1.04","7830.120198800356","0.034852311386727265"
"44","1","1","""neighbors""","2","0.1","""wealth""","0.01","25","""exp utility""","100","3","24","122158.64179368103","1.07","7614.337586556486","0.036975880755605865"
"50","1","1","""neighbors""","2","0.1","""wealth""","0.01","25","""exp utility""","100","3","24","138286.5530810713","0.92","7613.848308189531","0.03386791299416654"
"63","1","1","""neighbors""","2","0.1","""wealth""","0.01","25","""exp utility""","100","4","24","132141.69944216558","0.82","7413.23697123855","0.029881056334090376"
"52","1","1","""neighbors""","2","0.1","""wealth""","0.01","25","""exp utility""","100","3","24","124363.6022535929","0.92","7437.52480374295","0.03464081297536929"
"43","1","1","""neighbors""","2","0.1","""wealth""","0.01","25","""exp utility""","100","3","24","126165.14039738853","1.05","7515.682119306134","0.03483527533124637"
"58","1","1","""neighbors""","2","0.1","""wealth""","0.01","25","""exp utility""","100","3","24","126020.17618375416","1.07","7488.762909103248","0.033669207072275664"
"47","1","1","""neighbors""","2","0.1","""wealth""","0.01","25","""exp utility""","100","3","24","131232.589159016","1.04","7240.395368029701","0.03609696920084464"
"64","1","1","""neighbors""","2","0.1","""wealth""","0.01","25","""exp utility""","100","4","24","143554.72868404168","0.8","7593.476803539779","0.033555010688767366"
"46","1","1","""neighbors""","2","0.1","""wealth""","0.01","25","""exp utility""","100","3","24","122611.38644067054","0.94","7586.809180382644","0.035103567845891234"
"66","1","1","""neighbors""","2","0.1","""wealth""","0.01","25","""exp utility""","100","4","24","124370.34887776038","1.02","7356.8770218549","0.03552201936242712"
"68","1","1","""neighbors""","2","0.1","""wealth""","0.01","25","""exp utility""","100","4","24","118396.38897213504","0.99","6951.521817093396","0.033102002648603836"
"71","1","1","""neighbors""","2","0.1","""wealth""","0.01","25","""exp utility""","100","4","24","133227.43377016057","0.84","7602.3395727029265","0.03320009464227111"
"65","1","1","""neighbors""","2","0.1","""wealth""","0.01","25","""exp utility""","100","4","24","118610.84696245188","1.01","7149.557643797777","0.034356476489947545"
"70","1","1","""neighbors""","2","0.1","""wealth""","0.01","25","""exp utility""","100","4","24","136934.6912769691","0.78","7264.557586298807","0.03240282181440017"
"67","1","1","""neighbors""","2","0.1","""wealth""","0.01","25","""exp utility""","100","4","24","129933.04732764012","0.88","7240.7046675074325","0.032896301364900495"
"72","1","1","""neighbors""","2","0.1","""wealth""","0.01","25","""exp utility""","100","4","24","124482.49340809356","1.13","7583.161802823101","0.03520502920537217"
"69","1","1","""neighbors""","2","0.1","""wealth""","0.01","25","""exp utility""","100","4","24","136298.4655550008","0.79","7213.048602505528","0.031800853379259544"
"73","1","1","""neighbors""","2","0.1","""wealth""","0.01","25","""exp utility""","100","4","24","124857.61130682238","1.11","7409.5793109601655","0.03496822849948805"
"77","1","1","""neighbors""","2","0.1","""wealth""","0.01","25","""exp utility""","100","4","24","123669.85919040123","1.06","7669.827989992202","0.03585515348228857"
"56","1","1","""neighbors""","2","0.1","""wealth""","0.01","25","""exp utility""","100","3","24","122385.13897503208","1.03","7290.188494766868","0.03910458350724461"
"76","1","1","""neighbors""","2","0.1","""wealth""","0.01","25","""exp utility""","100","4","24","134288.8166218222","0.93","7337.052712016513","0.03401907534979935"
"85","1","1","""neighbors""","2","0.1","""wealth""","0.01","25","""exp utility""","100","5","24","127651.00930386657","0.88","6925.633417998005","0.03144063178722665"
"75","1","1","""neighbors""","2","0.1","""wealth""","0.01","25","""exp utility""","100","4","24","131601.07570022522","1","7408.179880880979","0.032329416996422784"
"83","1","1","""neighbors""","2","0.1","""wealth""","0.01","25","""exp utility""","100","5","24","122916.00441200919","0.92","7507.149172454049","0.03355739628456507"
"87","1","1","""neighbors""","2","0.1","""wealth""","0.01","25","""exp utility""","100","5","24","126774.65730577527","0.91","7315.785838177366","0.03314910936101294"
"81","1","1","""neighbors""","2","0.1","""wealth""","0.01","25","""exp utility""","100","5","24","130538.54996158247","0.95","7298.371391358005","0.033300202071921865"
"84","1","1","""neighbors""","2","0.1","""wealth""","0.01","25","""exp utility""","100","5","24","130753.96142105927","0.86","7284.918671978859","0.030082351703395443"
"79","1","1","""neighbors""","2","0.1","""wealth""","0.01","25","""exp utility""","100","4","24","130637.54776115026","0.82","7356.203163606101","0.0298764257122969"
"88","1","1","""neighbors""","2","0.1","""wealth""","0.01","25","""exp utility""","100","5","24","124368.24894475493","0.92","7358.187536226678","0.03154413820778202"
"86","1","1","""neighbors""","2","0.1","""wealth""","0.01","25","""exp utility""","100","5","24","136162.5662504052","0.93","7441.065216524205","0.03140375559991429"
"80","1","1","""neighbors""","2","0.1","""wealth""","0.01","25","""exp utility""","100","4","24","125152.62163692954","0.89","7608.637554793353","0.031925093872111045"
"95","1","1","""neighbors""","2","0.1","""wealth""","0.01","25","""exp utility""","100","5","24","139329.229320814","0.8","7337.046458825662","0.030657330573029967"
"90","1","1","""neighbors""","2","0.1","""wealth""","0.01","25","""exp utility""","100","5","24","131383.65198447392","0.84","7328.72941692647","0.03389676351066255"
"89","1","1","""neighbors""","2","0.1","""wealth""","0.01","25","""exp utility""","100","5","24","138530.77464194363","0.96","7671.4929474192","0.031832394569251125"
"91","1","1","""neighbors""","2","0.1","""wealth""","0.01","25","""exp utility""","100","5","24","110472.13321143253","1.15","7240.177810114707","0.0372999707554518"
"99","1","1","""neighbors""","2","0.1","""wealth""","0.01","25","""exp utility""","100","5","24","139473.035633336","0.78","7528.740544902588","0.03264405022822769"
"98","1","1","""neighbors""","2","0.1","""wealth""","0.01","25","""exp utility""","100","5","24","129410.77306217857","0.96","7616.486480312178","0.02987800373030725"
"92","1","1","""neighbors""","2","0.1","""wealth""","0.01","25","""exp utility""","100","5","24","133367.71437085827","0.78","7059.961287323016","0.031314544398568914"
"97","1","1","""neighbors""","2","0.1","""wealth""","0.01","25","""exp utility""","100","5","24","121650.61419887426","1.12","7447.526294680971","0.034773186879000925"
"96","1","1","""neighbors""","2","0.1","""wealth""","0.01","25","""exp utility""","100","5","24","127913.59617752064","0.98","7554.3611833765335","0.03574345007661106"
"94","1","1","""neighbors""","2","0.1","""wealth""","0.01","25","""exp utility""","100","5","24","135385.23984704676","0.9","7676.899314137374","0.03299935183273634"
"100","1","1","""neighbors""","2","0.1","""wealth""","0.01","25","""exp utility""","100","5","24","123488.64588848547","0.91","7158.965012286364","0.030966895603345465"
"106","1","1","""neighbors""","2","0.1","""wealth""","0.01","25","""exp utility""","100","6","24","122501.46366232494","0.82","7119.515945863174","0.03317690515929216"
"109","1","1","""neighbors""","2","0.1","""wealth""","0.01","25","""exp utility""","100","6","24","134591.3512822785","0.86","7214.259993332692","0.03226932559025062"
"110","1","1","""neighbors""","2","0.1","""wealth""","0.01","25","""exp utility""","100","6","24","133145.48368700824","0.85","7635.009653442197","0.03163365100747328"
"114","1","1","""neighbors""","2","0.1","""wealth""","0.01","25","""exp utility""","100","6","24","121116.47500266794","0.89","7410.5168446062235","0.032776815430970115"
"112","1","1","""neighbors""","2","0.1","""wealth""","0.01","25","""exp utility""","100","6","24","122408.51778403982","1.01","7242.252711005308","0.03333119546621396"
"102","1","1","""neighbors""","2","0.1","""wealth""","0.01","25","""exp utility""","100","6","24","125042.01886164313","0.9","7255.627290294215","0.03271343405059106"
"101","1","1","""neighbors""","2","0.1","""wealth""","0.01","25","""exp utility""","100","6","24","143438.77406966477","0.72","7540.993812319796","0.03233707887577934"
"103","1","1","""neighbors""","2","0.1","""wealth""","0.01","25","""exp utility""","100","6","24","131173.30223459186","0.81","7319.8991477131985","0.03274495823561868"
"108","1","1","""neighbors""","2","0.1","""wealth""","0.01","25","""exp utility""","100","6","24","131967.38778208272","0.87","7409.423965071568","0.03028599938391718"
"107","1","1","""neighbors""","2","0.1","""wealth""","0.01","25","""exp utility""","100","6","24","117518.38151220186","1.11","7466.068229485735","0.03518746715953121"
"116","1","1","""neighbors""","2","0.1","""wealth""","0.01","25","""exp utility""","100","6","24","126555.52963715997","1","7420.630428333047","0.032689632785165915"
"115","1","1","""neighbors""","2","0.1","""wealth""","0.01","25","""exp utility""","100","6","24","125555.16511099404","0.81","7239.322042719033","0.029316781898651893"
"105","1","1","""neighbors""","2","0.1","""wealth""","0.01","25","""exp utility""","100","6","24","134339.51496953308","0.92","7069.520849834339","0.032882868027149646"
"117","1","1","""neighbors""","2","0.1","""wealth""","0.01","25","""exp utility""","100","6","24","116375.39893606924","1.04","7299.454949167502","0.03674932543482139"
"118","1","1","""neighbors""","2","0.1","""wealth""","0.01","25","""exp utility""","100","6","24","110823.54079206364","0.95","7493.220347030709","0.03563722849319773"
"82","1","1","""neighbors""","2","0.1","""wealth""","0.01","25","""exp utility""","100","5","24","130328.81496233834","0.81","7439.820297603222","0.03175351578954479"
"120","1","1","""neighbors""","2","0.1","""wealth""","0.01","25","""exp utility""","100","6","24","137045.41464249376","0.77","7325.209876238189","0.029943432255652883"
"119","1","1","""neighbors""","2","0.1","""wealth""","0.01","25","""exp utility""","100","6","24","120664.54470437887","0.88","6987.417590469176","0.029265326875697797"
"113","1","1","""neighbors""","2","0.1","""wealth""","0.01","25","""exp utility""","100","6","24","131839.66296761404","1.03","7692.88714349072","0.033586328825622645"
"111","1","1","""neighbors""","2","0.1","""wealth""","0.01","25","""exp utility""","100","6","24","127415.74317725786","0.91","7149.1814919522885","0.03385125950841564"
"126","1","1","""neighbors""","2","0.1","""wealth""","0.01","25","""exp utility""","100","7","24","120708.61931656275","1.02","7243.481221959164","0.03263595706581699"
"127","1","1","""neighbors""","2","0.1","""wealth""","0.01","25","""exp utility""","100","7","24","126466.41733332419","0.94","7442.622337926952","0.03465947493964252"
"124","1","1","""neighbors""","2","0.1","""wealth""","0.01","25","""exp utility""","100","7","24","124879.30226724542","0.98","7146.506386372312","0.032606614118494866"
"129","1","1","""neighbors""","2","0.1","""wealth""","0.01","25","""exp utility""","100","7","24","126453.5870539765","1.03","7105.127358101567","0.03333690603964694"
"130","1","1","""neighbors""","2","0.1","""wealth""","0.01","25","""exp utility""","100","7","24","125753.40434117783","0.84","7103.482039502434","0.03155511359544269"
"125","1","1","""neighbors""","2","0.1","""wealth""","0.01","25","""exp utility""","100","7","24","151616.3290956243","0.7","7208.973226734271","0.029720502123135976"
"121","1","1","""neighbors""","2","0.1","""wealth""","0.01","25","""exp utility""","100","7","24","131573.23438709573","0.82","7251.156934601493","0.030653446045815155"
"132","1","1","""neighbors""","2","0.1","""wealth""","0.01","25","""exp utility""","100","7","24","130637.59520980623","0.84","6997.608374493865","0.031834627916729065"
"133","1","1","""neighbors""","2","0.1","""wealth""","0.01","25","""exp utility""","100","7","24","137469.15712576255","0.74","7081.74242509151","0.02907381930265986"
"1","1","1","""neighbors""","2","0.1","""wealth""","0.01","25","""exp utility""","100","1","24","127694.38914484797","1.18","7718.605016838238","0.037545939796872256"
"78","1","1","""neighbors""","2","0.1","""wealth""","0.01","25","""exp utility""","100","4","24","132491.10968132716","0.88","7237.248023061173","0.03088273835684767"
"93","1","1","""neighbors""","2","0.1","""wealth""","0.01","25","""exp utility""","100","5","24","126691.85964598908","0.85","7159.9731811747015","0.030876734376914156"
"122","1","1","""neighbors""","2","0.1","""wealth""","0.01","25","""exp utility""","100","7","24","132788.06292345864","0.78","7188.370554471014","0.030125500576543583"
"136","1","1","""neighbors""","2","0.1","""wealth""","0.01","25","""exp utility""","100","7","24","121176.38461496134","1.07","7398.3258425748745","0.0312660432432367"
"137","1","1","""neighbors""","2","0.1","""wealth""","0.01","25","""exp utility""","100","7","24","137280.0460967773","0.76","7373.282528333771","0.028970422480127694"
"123","1","1","""neighbors""","2","0.1","""wealth""","0.01","25","""exp utility""","100","7","24","121887.80631045891","0.84","7092.830854724969","0.030061910937204117"
"128","1","1","""neighbors""","2","0.1","""wealth""","0.01","25","""exp utility""","100","7","24","119981.06596939803","0.92","7213.820081068422","0.030405095280622817"
"74","1","1","""neighbors""","2","0.1","""wealth""","0.01","25","""exp utility""","100","4","24","132578.3188035464","0.97","7674.01957239552","0.03525557430064486"
"138","1","1","""neighbors""","2","0.1","""wealth""","0.01","25","""exp utility""","100","7","24","120675.97285227591","1.06","6974.041865850715","0.031015887580689138"
"134","1","1","""neighbors""","2","0.1","""wealth""","0.01","25","""exp utility""","100","7","24","131429.5899993718","0.86","6995.857827536052","0.032548394702956104"
"140","1","1","""neighbors""","2","0.1","""wealth""","0.01","25","""exp utility""","100","7","24","128521.50444513686","0.77","7282.044887759828","0.030234489573718205"
"139","1","1","""neighbors""","2","0.1","""wealth""","0.01","25","""exp utility""","100","7","24","127849.37192229182","0.85","7225.749605716523","0.03186041063376111"
"143","1","1","""neighbors""","2","0.1","""wealth""","0.01","25","""exp utility""","100","8","24","125578.66617296795","0.89","6804.991918431208","0.031197138903514846"
"141","1","1","""neighbors""","2","0.1","""wealth""","0.01","25","""exp utility""","100","8","24","123493.60597599039","0.85","7167.661220665026","0.03427932879720366"
"104","1","1","""neighbors""","2","0.1","""wealth""","0.01","25","""exp utility""","100","6","24","142079.64931659945","0.69","7120.4003559032235","0.029320143277542052"
"144","1","1","""neighbors""","2","0.1","""wealth""","0.01","25","""exp utility""","100","8","24","117551.05875902795","0.81","6941.33610240264","0.03364934963034755"
"150","1","1","""neighbors""","2","0.1","""wealth""","0.01","25","""exp utility""","100","8","24","131941.52666578372","0.9","7272.328281600831","0.030733934905782963"
"135","1","1","""neighbors""","2","0.1","""wealth""","0.01","25","""exp utility""","100","7","24","122284.09009033197","0.91","7350.005147682179","0.032819800013196246"
"154","1","1","""neighbors""","2","0.1","""wealth""","0.01","25","""exp utility""","100","8","24","127567.67158693999","0.92","7145.347785134052","0.03321041894061163"
"152","1","1","""neighbors""","2","0.1","""wealth""","0.01","25","""exp utility""","100","8","24","143937.63702712208","0.63","7261.144651344062","0.029513299849347887"
"156","1","1","""neighbors""","2","0.1","""wealth""","0.01","25","""exp utility""","100","8","24","130109.69544144267","0.75","7276.031465035593","0.031037411592888562"
"149","1","1","""neighbors""","2","0.1","""wealth""","0.01","25","""exp utility""","100","8","24","133170.12244507202","0.86","7416.033950159418","0.0320710535521359"
"157","1","1","""neighbors""","2","0.1","""wealth""","0.01","25","""exp utility""","100","8","24","128862.27160880045","0.86","7250.997009265732","0.029915480849819685"
"158","1","1","""neighbors""","2","0.1","""wealth""","0.01","25","""exp utility""","100","8","24","131468.57291869447","0.84","7078.069169153868","0.03417899870022931"
"151","1","1","""neighbors""","2","0.1","""wealth""","0.01","25","""exp utility""","100","8","24","124395.69202684831","0.9","7167.327264155433","0.02781170150853491"
"148","1","1","""neighbors""","2","0.1","""wealth""","0.01","25","""exp utility""","100","8","24","150413.50097730718","0.64","7208.976957756665","0.026443176592614887"
"159","1","1","""neighbors""","2","0.1","""wealth""","0.01","25","""exp utility""","100","8","24","125652.2381089039","0.86","7073.477912480967","0.03159852875356552"
"162","1","1","""neighbors""","2","0.1","""wealth""","0.01","25","""exp utility""","100","9","24","133536.91790019633","0.77","7336.852412568888","0.03227347791447941"
"155","1","1","""neighbors""","2","0.1","""wealth""","0.01","25","""exp utility""","100","8","24","131899.77720771448","0.78","7367.595498224327","0.034988167884090426"
"161","1","1","""neighbors""","2","0.1","""wealth""","0.01","25","""exp utility""","100","9","24","122189.35629600605","0.87","7003.91498918009","0.03245409581443122"
"142","1","1","""neighbors""","2","0.1","""wealth""","0.01","25","""exp utility""","100","8","24","126614.01258117486","0.9","7428.36428485919","0.03147362123836967"
"164","1","1","""neighbors""","2","0.1","""wealth""","0.01","25","""exp utility""","100","9","24","120714.71642987843","0.92","7262.1640443770775","0.03193097527403167"
"166","1","1","""neighbors""","2","0.1","""wealth""","0.01","25","""exp utility""","100","9","24","120913.63190329302","0.78","6670.27248382492","0.03030855620916492"
"168","1","1","""neighbors""","2","0.1","""wealth""","0.01","25","""exp utility""","100","9","24","123589.0071865095","0.83","7121.86289315689","0.032507600390460835"
"167","1","1","""neighbors""","2","0.1","""wealth""","0.01","25","""exp utility""","100","9","24","133285.0796394774","0.84","7057.181087652126","0.033054940798055814"
"169","1","1","""neighbors""","2","0.1","""wealth""","0.01","25","""exp utility""","100","9","24","130363.55645707647","0.82","7095.154245405921","0.03204887557867743"
"165","1","1","""neighbors""","2","0.1","""wealth""","0.01","25","""exp utility""","100","9","24","133191.03883004677","0.82","7304.494001803607","0.03012662871847741"
"170","1","1","""neighbors""","2","0.1","""wealth""","0.01","25","""exp utility""","100","9","24","132104.17691159493","0.81","6992.729830537733","0.031492422500179855"
"172","1","1","""neighbors""","2","0.1","""wealth""","0.01","25","""exp utility""","100","9","24","118305.4760810605","0.9","7007.500543838723","0.031081571235981896"
"163","1","1","""neighbors""","2","0.1","""wealth""","0.01","25","""exp utility""","100","9","24","125254.12925360024","0.82","6890.842233554746","0.030367505249638"
"131","1","1","""neighbors""","2","0.1","""wealth""","0.01","25","""exp utility""","100","7","24","132324.94901170523","0.8","7407.3643739200525","0.029814183308628693"
"173","1","1","""neighbors""","2","0.1","""wealth""","0.01","25","""exp utility""","100","9","24","129056.67706327593","0.91","7209.037211136946","0.03175363224939756"
"175","1","1","""neighbors""","2","0.1","""wealth""","0.01","25","""exp utility""","100","9","24","121157.28835472789","0.93","7102.331643658242","0.03148473212330398"
"177","1","1","""neighbors""","2","0.1","""wealth""","0.01","25","""exp utility""","100","9","24","128440.04105030188","0.81","7543.165105381232","0.031507537619164284"
"178","1","1","""neighbors""","2","0.1","""wealth""","0.01","25","""exp utility""","100","9","24","132070.50715519715","0.74","7574.990817109722","0.03274870055069562"
"179","1","1","""neighbors""","2","0.1","""wealth""","0.01","25","""exp utility""","100","9","24","131119.7060048506","0.92","7168.789554245588","0.031612887469742106"
"181","1","1","""neighbors""","2","0.1","""wealth""","0.01","25","""exp utility""","100","10","24","141862.24579105165","0.65","7016.12209330446","0.028844988073451996"
"180","1","1","""neighbors""","2","0.1","""wealth""","0.01","25","""exp utility""","100","9","24","123799.7376586209","0.88","7180.4728354401705","0.031869141981839294"
"171","1","1","""neighbors""","2","0.1","""wealth""","0.01","25","""exp utility""","100","9","24","139645.73167420886","0.59","7231.601600289389","0.026162120268943042"
"174","1","1","""neighbors""","2","0.1","""wealth""","0.01","25","""exp utility""","100","9","24","131047.6001743877","0.81","6952.512165317668","0.0326440328816113"
"176","1","1","""neighbors""","2","0.1","""wealth""","0.01","25","""exp utility""","100","9","24","133818.77095325442","0.8","6902.442820258739","0.030916458396153736"
"182","1","1","""neighbors""","2","0.1","""wealth""","0.01","25","""exp utility""","100","10","24","134063.53502224825","0.67","7293.923773602811","0.03436486229377766"
"183","1","1","""neighbors""","2","0.1","""wealth""","0.01","25","""exp utility""","100","10","24","122116.8181071701","0.82","7030.458750304692","0.0314998923276461"
"187","1","1","""neighbors""","2","0.1","""wealth""","0.01","25","""exp utility""","100","10","24","117694.78568505969","1.04","7518.723366617773","0.030280993993937074"
"184","1","1","""neighbors""","2","0.1","""wealth""","0.01","25","""exp utility""","100","10","24","139542.25395423523","0.64","7021.718524002523","0.0304419679757683"
"189","1","1","""neighbors""","2","0.1","""wealth""","0.01","25","""exp utility""","100","10","24","134003.2760574896","0.77","7088.203971873722","0.031540284214857335"
"188","1","1","""neighbors""","2","0.1","""wealth""","0.01","25","""exp utility""","100","10","24","118255.95221950537","0.85","7155.018021335105","0.03233828877863967"
"146","1","1","""neighbors""","2","0.1","""wealth""","0.01","25","""exp utility""","100","8","24","125597.21047028727","0.78","7113.69900195099","0.029891090672623043"
"185","1","1","""neighbors""","2","0.1","""wealth""","0.01","25","""exp utility""","100","10","24","124286.21911552084","0.82","6927.146416902632","0.028989617478216104"
"153","1","1","""neighbors""","2","0.1","""wealth""","0.01","25","""exp utility""","100","8","24","137066.673652359","0.7","7046.402920394278","0.030776780574071308"
"190","1","1","""neighbors""","2","0.1","""wealth""","0.01","25","""exp utility""","100","10","24","118798.56148703849","0.83","6723.133598809525","0.030200343716165184"
"191","1","1","""neighbors""","2","0.1","""wealth""","0.01","25","""exp utility""","100","10","24","126195.59493380238","0.69","7129.6644881486645","0.029713640490566472"
"192","1","1","""neighbors""","2","0.1","""wealth""","0.01","25","""exp utility""","100","10","24","127295.37171833735","0.92","7123.475780458261","0.03077135048617506"
"193","1","1","""neighbors""","2","0.1","""wealth""","0.01","25","""exp utility""","100","10","24","123689.000109734","0.89","7209.5799965463275","0.03308796528788237"
"160","1","1","""neighbors""","2","0.1","""wealth""","0.01","25","""exp utility""","100","8","24","113453.75639369208","1.03","6817.215926269008","0.03005699112718991"
"196","1","1","""neighbors""","2","0.1","""wealth""","0.01","25","""exp utility""","100","10","24","122550.18285556918","0.92","7171.2069040274255","0.031142704955443166"
"195","1","1","""neighbors""","2","0.1","""wealth""","0.01","25","""exp utility""","100","10","24","121380.12782319529","0.79","6935.868701543278","0.028738354463366277"
"194","1","1","""neighbors""","2","0.1","""wealth""","0.01","25","""exp utility""","100","10","24","130578.98502303555","0.77","7071.1825643352295","0.030145033977446393"
"197","1","1","""neighbors""","2","0.1","""wealth""","0.01","25","""exp utility""","100","10","24","117864.16319853834","0.97","7118.802432842325","0.03089778435507831"
"199","1","1","""neighbors""","2","0.1","""wealth""","0.01","25","""exp utility""","100","10","24","128810.83470959397","0.74","7392.797390230116","0.030623886264430338"
"200","1","1","""neighbors""","2","0.1","""wealth""","0.01","25","""exp utility""","100","10","24","130461.69381289929","0.78","6964.736982168368","0.030001702325077272"
"201","1","1","""neighbors""","2","0.1","""wealth""","0.01","25","""exp utility""","100","11","24","132989.94854805805","0.71","7547.983590495731","0.028153383828810684"
"202","1","1","""neighbors""","2","0.1","""wealth""","0.01","25","""exp utility""","100","11","24","128713.49115939034","0.89","7134.399802916177","0.03163744659506204"
"198","1","1","""neighbors""","2","0.1","""wealth""","0.01","25","""exp utility""","100","10","24","122664.74436285542","0.87","6979.214338243594","0.028317346963661946"
"207","1","1","""neighbors""","2","0.1","""wealth""","0.01","25","""exp utility""","100","11","24","133294.523826948","0.78","7228.129577606182","0.033448297000364426"
"206","1","1","""neighbors""","2","0.1","""wealth""","0.01","25","""exp utility""","100","11","24","127140.44234493902","0.84","7082.876957898814","0.02822550557633225"
"208","1","1","""neighbors""","2","0.1","""wealth""","0.01","25","""exp utility""","100","11","24","123337.84039498861","0.76","6915.008651633938","0.03159292955118846"
"203","1","1","""neighbors""","2","0.1","""wealth""","0.01","25","""exp utility""","100","11","24","116336.66431011513","0.96","6844.272636503051","0.03141241925441383"
"209","1","1","""neighbors""","2","0.1","""wealth""","0.01","25","""exp utility""","100","11","24","129756.81872489289","0.89","7195.724142177934","0.030319747834240962"
"212","1","1","""neighbors""","2","0.1","""wealth""","0.01","25","""exp utility""","100","11","24","123042.52486852511","0.87","7162.0656062459275","0.03147359084026435"
"211","1","1","""neighbors""","2","0.1","""wealth""","0.01","25","""exp utility""","100","11","24","119245.2525525346","0.97","6869.704518200706","0.03237084723606373"
"213","1","1","""neighbors""","2","0.1","""wealth""","0.01","25","""exp utility""","100","11","24","115661.39586954596","0.9","7161.510671747232","0.033296629430132674"
"214","1","1","""neighbors""","2","0.1","""wealth""","0.01","25","""exp utility""","100","11","24","128429.3125278694","1.02","7458.747476448096","0.028481220398486308"
"218","1","1","""neighbors""","2","0.1","""wealth""","0.01","25","""exp utility""","100","11","24","136784.9523677213","0.73","7520.807658017822","0.031039597095383557"
"215","1","1","""neighbors""","2","0.1","""wealth""","0.01","25","""exp utility""","100","11","24","133500.46982995316","0.63","7013.644700339293","0.02844392725951349"
"221","1","1","""neighbors""","2","0.1","""wealth""","0.01","25","""exp utility""","100","12","24","124157.20564427707","0.7","6991.8403778884895","0.028002615899978166"
"216","1","1","""neighbors""","2","0.1","""wealth""","0.01","25","""exp utility""","100","11","24","112623.95171086669","0.98","7189.788917210696","0.03274403753606745"
"219","1","1","""neighbors""","2","0.1","""wealth""","0.01","25","""exp utility""","100","11","24","123723.7611876264","0.87","7445.923670139182","0.030031116943983367"
"222","1","1","""neighbors""","2","0.1","""wealth""","0.01","25","""exp utility""","100","12","24","132035.0630720687","0.7","6879.822797309005","0.030650649383715138"
"217","1","1","""neighbors""","2","0.1","""wealth""","0.01","25","""exp utility""","100","11","24","117365.50508736093","0.96","7176.511938683879","0.029316759293646574"
"224","1","1","""neighbors""","2","0.1","""wealth""","0.01","25","""exp utility""","100","12","24","131597.6189682155","0.73","7120.985542314186","0.029675698244164547"
"220","1","1","""neighbors""","2","0.1","""wealth""","0.01","25","""exp utility""","100","11","24","118121.0429831654","1.02","6996.597434371411","0.030969351024886925"
"147","1","1","""neighbors""","2","0.1","""wealth""","0.01","25","""exp utility""","100","8","24","138878.99773941777","0.76","7254.681436890379","0.029190942610665346"
"223","1","1","""neighbors""","2","0.1","""wealth""","0.01","25","""exp utility""","100","12","24","128351.95795452809","0.86","7202.40774040288","0.03162717632307634"
"231","1","1","""neighbors""","2","0.1","""wealth""","0.01","25","""exp utility""","100","12","24","128580.07227861561","0.72","7065.017556577797","0.031264243127035934"
"229","1","1","""neighbors""","2","0.1","""wealth""","0.01","25","""exp utility""","100","12","24","110166.80979574675","0.87","6750.4586108835565","0.031521580330562265"
"230","1","1","""neighbors""","2","0.1","""wealth""","0.01","25","""exp utility""","100","12","24","118406.00940757657","0.93","6827.624834134715","0.031899800365947396"
"234","1","1","""neighbors""","2","0.1","""wealth""","0.01","25","""exp utility""","100","12","24","138184.22837966643","0.57","7009.034396755003","0.03013882986186342"
"233","1","1","""neighbors""","2","0.1","""wealth""","0.01","25","""exp utility""","100","12","24","119784.18478888253","0.74","6788.798126513841","0.029850315266445618"
"235","1","1","""neighbors""","2","0.1","""wealth""","0.01","25","""exp utility""","100","12","24","133265.84071300528","0.8","6901.474216886003","0.027909230105945478"
"228","1","1","""neighbors""","2","0.1","""wealth""","0.01","25","""exp utility""","100","12","24","116646.12557140339","0.89","6715.752416705734","0.029072819676778355"
"236","1","1","""neighbors""","2","0.1","""wealth""","0.01","25","""exp utility""","100","12","24","122672.25436247967","0.93","7197.8264898886","0.031480770231281215"
"232","1","1","""neighbors""","2","0.1","""wealth""","0.01","25","""exp utility""","100","12","24","134479.40372367564","0.78","7386.845703217609","0.027346233567623047"
"226","1","1","""neighbors""","2","0.1","""wealth""","0.01","25","""exp utility""","100","12","24","119916.43001598767","0.69","6711.007260718147","0.030215267071172888"
"225","1","1","""neighbors""","2","0.1","""wealth""","0.01","25","""exp utility""","100","12","24","115553.01244214305","1.03","7333.96131134902","0.030421203593428262"
"227","1","1","""neighbors""","2","0.1","""wealth""","0.01","25","""exp utility""","100","12","24","124139.99902233314","0.84","7136.2234814743115","0.0295715241498105"
"204","1","1","""neighbors""","2","0.1","""wealth""","0.01","25","""exp utility""","100","11","24","115839.6200021285","0.93","6642.676439273092","0.032048858115867065"
"240","1","1","""neighbors""","2","0.1","""wealth""","0.01","25","""exp utility""","100","12","24","124234.3665400723","0.82","7013.414891343202","0.030955675511312727"
"241","1","1","""neighbors""","2","0.1","""wealth""","0.01","25","""exp utility""","100","13","24","133065.0012192024","0.77","7165.499940267274","0.03185896596342872"
"238","1","1","""neighbors""","2","0.1","""wealth""","0.01","25","""exp utility""","100","12","24","120846.67773620377","0.81","6638.8344566867","0.030903710719187818"
"242","1","1","""neighbors""","2","0.1","""wealth""","0.01","25","""exp utility""","100","13","24","143402.61856417402","0.74","7249.887198659039","0.028656867696729007"
"243","1","1","""neighbors""","2","0.1","""wealth""","0.01","25","""exp utility""","100","13","24","121467.78083793916","0.94","6582.4455235900605","0.0293319518854038"
"244","1","1","""neighbors""","2","0.1","""wealth""","0.01","25","""exp utility""","100","13","24","131042.54393323982","0.67","6888.428608629707","0.02859772832541566"
"186","1","1","""neighbors""","2","0.1","""wealth""","0.01","25","""exp utility""","100","10","24","128576.7715734358","0.84","7225.669996649313","0.031443851357038255"
"205","1","1","""neighbors""","2","0.1","""wealth""","0.01","25","""exp utility""","100","11","24","126524.49238917114","0.74","7090.74206428584","0.028278380791493064"
"237","1","1","""neighbors""","2","0.1","""wealth""","0.01","25","""exp utility""","100","12","24","127539.6596953765","0.92","7472.749259332996","0.03236458450467056"
"247","1","1","""neighbors""","2","0.1","""wealth""","0.01","25","""exp utility""","100","13","24","129787.78250369178","0.8","7018.438692410744","0.03074808690376299"
"245","1","1","""neighbors""","2","0.1","""wealth""","0.01","25","""exp utility""","100","13","24","122774.12748838626","0.77","6669.089855315408","0.027680010735159993"
"249","1","1","""neighbors""","2","0.1","""wealth""","0.01","25","""exp utility""","100","13","24","117582.29209117431","0.85","7025.0903040840985","0.029753785527785893"
"248","1","1","""neighbors""","2","0.1","""wealth""","0.01","25","""exp utility""","100","13","24","113158.93944284593","0.88","7108.8350052845435","0.033607068838672746"
"253","1","1","""neighbors""","2","0.1","""wealth""","0.01","25","""exp utility""","100","13","24","122215.82720226474","0.77","6680.525962912739","0.029635174126155524"
"254","1","1","""neighbors""","2","0.1","""wealth""","0.01","25","""exp utility""","100","13","24","126064.05146424127","0.89","7043.387420360422","0.03082933637063215"
"257","1","1","""neighbors""","2","0.1","""wealth""","0.01","25","""exp utility""","100","13","24","131212.86522301458","0.71","6811.075461098633","0.028315702268350566"
"258","1","1","""neighbors""","2","0.1","""wealth""","0.01","25","""exp utility""","100","13","24","116900.34986211754","0.95","7070.3384637848385","0.031508677891222386"
"246","1","1","""neighbors""","2","0.1","""wealth""","0.01","25","""exp utility""","100","13","24","144036.7166065077","0.53","6987.731777810104","0.026602756959202608"
"251","1","1","""neighbors""","2","0.1","""wealth""","0.01","25","""exp utility""","100","13","24","126027.93226589743","0.91","7291.6014253923895","0.03020038418741167"
"262","1","1","""neighbors""","2","0.1","""wealth""","0.01","25","""exp utility""","100","14","24","132632.7262380343","0.73","7049.825186526978","0.028935769869040832"
"250","1","1","""neighbors""","2","0.1","""wealth""","0.01","25","""exp utility""","100","13","24","123428.44497483688","0.9","7123.918937109144","0.03203680711132047"
"263","1","1","""neighbors""","2","0.1","""wealth""","0.01","25","""exp utility""","100","14","24","117261.3812404191","0.75","6877.554928987411","0.029477883238290856"
"256","1","1","""neighbors""","2","0.1","""wealth""","0.01","25","""exp utility""","100","13","24","133190.0070166614","0.7","7237.310891342685","0.02586406104290097"
"255","1","1","""neighbors""","2","0.1","""wealth""","0.01","25","""exp utility""","100","13","24","131829.90442250084","0.62","6678.460319569824","0.02997651827817098"
"261","1","1","""neighbors""","2","0.1","""wealth""","0.01","25","""exp utility""","100","14","24","126582.58979465673","0.82","6774.01221062398","0.030287353049304036"
"264","1","1","""neighbors""","2","0.1","""wealth""","0.01","25","""exp utility""","100","14","24","116816.41945394363","0.86","7150.668277059576","0.030811018043526227"
"267","1","1","""neighbors""","2","0.1","""wealth""","0.01","25","""exp utility""","100","14","24","117010.9484441653","0.97","7189.442568265691","0.0315478751195471"
"268","1","1","""neighbors""","2","0.1","""wealth""","0.01","25","""exp utility""","100","14","24","128672.9899817416","0.65","7054.9953251141915","0.0290905549021393"
"265","1","1","""neighbors""","2","0.1","""wealth""","0.01","25","""exp utility""","100","14","24","117473.09754883756","0.83","6955.65600873537","0.027622576883488584"
"272","1","1","""neighbors""","2","0.1","""wealth""","0.01","25","""exp utility""","100","14","24","121745.41867167252","0.78","7039.552286758117","0.02934401105822236"
"266","1","1","""neighbors""","2","0.1","""wealth""","0.01","25","""exp utility""","100","14","24","133866.570359016","0.72","7086.591122533813","0.029679645482987266"
"273","1","1","""neighbors""","2","0.1","""wealth""","0.01","25","""exp utility""","100","14","24","129873.61584938456","0.77","6612.039024034719","0.02915579160745434"
"274","1","1","""neighbors""","2","0.1","""wealth""","0.01","25","""exp utility""","100","14","24","127836.10911408211","0.85","6994.696020915523","0.02761448455188038"
"275","1","1","""neighbors""","2","0.1","""wealth""","0.01","25","""exp utility""","100","14","24","121560.39991906128","0.84","6920.34624573","0.027966486956426936"
"239","1","1","""neighbors""","2","0.1","""wealth""","0.01","25","""exp utility""","100","12","24","117433.27216111355","1.07","7167.571764428943","0.03337371385907542"
"270","1","1","""neighbors""","2","0.1","""wealth""","0.01","25","""exp utility""","100","14","24","118413.99808610935","0.89","6725.162910165696","0.02985124727006263"
"271","1","1","""neighbors""","2","0.1","""wealth""","0.01","25","""exp utility""","100","14","24","130766.15576543254","0.79","7133.27870251558","0.029694840675702477"
"269","1","1","""neighbors""","2","0.1","""wealth""","0.01","25","""exp utility""","100","14","24","117527.3428929783","0.79","6558.057813055709","0.03071097608541572"
"278","1","1","""neighbors""","2","0.1","""wealth""","0.01","25","""exp utility""","100","14","24","125841.70169933568","0.85","7079.969664308318","0.029773397795932976"
"210","1","1","""neighbors""","2","0.1","""wealth""","0.01","25","""exp utility""","100","11","24","115109.81313045374","1.03","7343.881860154493","0.029450062323669868"
"280","1","1","""neighbors""","2","0.1","""wealth""","0.01","25","""exp utility""","100","14","24","125509.62438601542","0.73","7053.6649414304275","0.028693818798795206"
"279","1","1","""neighbors""","2","0.1","""wealth""","0.01","25","""exp utility""","100","14","24","111038.04496071182","0.95","7059.275434016279","0.03226981787060238"
"259","1","1","""neighbors""","2","0.1","""wealth""","0.01","25","""exp utility""","100","13","24","132716.28968525855","0.71","7163.010737888832","0.030867190167987002"
"277","1","1","""neighbors""","2","0.1","""wealth""","0.01","25","""exp utility""","100","14","24","129690.7263184777","0.77","7361.74309799607","0.03131906129061465"
"282","1","1","""neighbors""","2","0.1","""wealth""","0.01","25","""exp utility""","100","15","24","124746.47511994229","0.76","6734.956181550386","0.028902881643151086"
"283","1","1","""neighbors""","2","0.1","""wealth""","0.01","25","""exp utility""","100","15","24","131797.81687986045","0.71","7069.4115485785305","0.0287892244047028"
"281","1","1","""neighbors""","2","0.1","""wealth""","0.01","25","""exp utility""","100","15","24","129813.75772693532","0.6","7098.767499919857","0.02906047931842811"
"285","1","1","""neighbors""","2","0.1","""wealth""","0.01","25","""exp utility""","100","15","24","130531.15202165603","0.69","7065.037443503764","0.02938739643724007"
"286","1","1","""neighbors""","2","0.1","""wealth""","0.01","25","""exp utility""","100","15","24","120910.9220099229","0.87","6747.8625650753975","0.03188212205644304"
"276","1","1","""neighbors""","2","0.1","""wealth""","0.01","25","""exp utility""","100","14","24","132454.91383555997","0.65","7093.594578056221","0.029300017833637438"
"260","1","1","""neighbors""","2","0.1","""wealth""","0.01","25","""exp utility""","100","13","24","133177.15012557432","0.86","7139.453384428642","0.031207578691696766"
"289","1","1","""neighbors""","2","0.1","""wealth""","0.01","25","""exp utility""","100","15","24","130355.97827444611","0.77","7404.32616860632","0.029503670245383765"
"291","1","1","""neighbors""","2","0.1","""wealth""","0.01","25","""exp utility""","100","15","24","116316.88482523235","0.91","7136.167782970686","0.030671178692759003"
"284","1","1","""neighbors""","2","0.1","""wealth""","0.01","25","""exp utility""","100","15","24","136231.73565584247","0.69","7148.014395649488","0.03160119747445487"
"294","1","1","""neighbors""","2","0.1","""wealth""","0.01","25","""exp utility""","100","15","24","129279.33529323175","0.69","6793.308159093419","0.0300994411873484"
"293","1","1","""neighbors""","2","0.1","""wealth""","0.01","25","""exp utility""","100","15","24","131762.2392591768","0.9","7182.65673990057","0.02969781377277211"
"290","1","1","""neighbors""","2","0.1","""wealth""","0.01","25","""exp utility""","100","15","24","113545.68205065772","0.89","6784.50357172868","0.030602203194050163"
"252","1","1","""neighbors""","2","0.1","""wealth""","0.01","25","""exp utility""","100","13","24","127924.6079790778","0.74","6984.118242226054","0.028820833366128604"
"287","1","1","""neighbors""","2","0.1","""wealth""","0.01","25","""exp utility""","100","15","24","133874.88935792627","0.66","7141.465141901776","0.029386206130398038"
"297","1","1","""neighbors""","2","0.1","""wealth""","0.01","25","""exp utility""","100","15","24","121919.06995181339","0.76","7069.517401793358","0.028902146476610872"
"298","1","1","""neighbors""","2","0.1","""wealth""","0.01","25","""exp utility""","100","15","24","115687.59338821402","0.98","7206.110024621706","0.03349560360133433"
"296","1","1","""neighbors""","2","0.1","""wealth""","0.01","25","""exp utility""","100","15","24","134121.2686070289","0.7","6846.837437801104","0.029212062106503595"
"301","1","1","""neighbors""","2","0.1","""wealth""","0.01","25","""exp utility""","100","16","24","124927.04819543505","0.69","6803.2947711948855","0.028025837152385137"
"300","1","1","""neighbors""","2","0.1","""wealth""","0.01","25","""exp utility""","100","15","24","119748.34834528809","0.74","6863.575897535868","0.029697312118230356"
"295","1","1","""neighbors""","2","0.1","""wealth""","0.01","25","""exp utility""","100","15","24","122816.98160733128","0.79","6792.449281250335","0.030426187921258934"
"299","1","1","""neighbors""","2","0.1","""wealth""","0.01","25","""exp utility""","100","15","24","120963.7204879535","0.72","6728.254579734233","0.028609718259759623"
"304","1","1","""neighbors""","2","0.1","""wealth""","0.01","25","""exp utility""","100","16","24","129047.45788100777","0.6","6620.270484675494","0.02776817498427072"
"305","1","1","""neighbors""","2","0.1","""wealth""","0.01","25","""exp utility""","100","16","24","121872.45392701469","0.67","6755.348310195903","0.025919361352871862"
"302","1","1","""neighbors""","2","0.1","""wealth""","0.01","25","""exp utility""","100","16","24","116609.61142591799","0.82","7053.519941167257","0.02997408191527666"
"307","1","1","""neighbors""","2","0.1","""wealth""","0.01","25","""exp utility""","100","16","24","119970.70112680958","0.8","6786.601596357447","0.027744364350698273"
"308","1","1","""neighbors""","2","0.1","""wealth""","0.01","25","""exp utility""","100","16","24","128825.23418850853","0.9","7109.659842210004","0.031199445146516104"
"292","1","1","""neighbors""","2","0.1","""wealth""","0.01","25","""exp utility""","100","15","24","124517.98670080378","0.77","6647.7314398431345","0.02722953658476853"
"306","1","1","""neighbors""","2","0.1","""wealth""","0.01","25","""exp utility""","100","16","24","115955.5780519491","0.92","6952.924710467633","0.03227160074543639"
"309","1","1","""neighbors""","2","0.1","""wealth""","0.01","25","""exp utility""","100","16","24","115013.47159430842","0.83","6970.761858381975","0.030790575580766477"
"310","1","1","""neighbors""","2","0.1","""wealth""","0.01","25","""exp utility""","100","16","24","128519.02863812771","0.63","6793.583799222247","0.02879321609283608"
"312","1","1","""neighbors""","2","0.1","""wealth""","0.01","25","""exp utility""","100","16","24","115286.35835416138","0.89","6828.605091070119","0.028251257774744958"
"288","1","1","""neighbors""","2","0.1","""wealth""","0.01","25","""exp utility""","100","15","24","124403.15474020637","0.91","6714.709532945197","0.0314423759343091"
"303","1","1","""neighbors""","2","0.1","""wealth""","0.01","25","""exp utility""","100","16","24","118037.84774041497","0.94","6913.320448908093","0.030907269154443043"
"313","1","1","""neighbors""","2","0.1","""wealth""","0.01","25","""exp utility""","100","16","24","119982.82399341252","0.87","7109.586472932603","0.028832313808581995"
"316","1","1","""neighbors""","2","0.1","""wealth""","0.01","25","""exp utility""","100","16","24","132323.16386292732","0.79","7110.227881559101","0.028771511923236726"
"315","1","1","""neighbors""","2","0.1","""wealth""","0.01","25","""exp utility""","100","16","24","116679.12778711885","0.94","6883.908850093088","0.031989443315829307"
"319","1","1","""neighbors""","2","0.1","""wealth""","0.01","25","""exp utility""","100","16","24","129106.58212663169","0.71","6575.499294060167","0.02816273468842112"
"314","1","1","""neighbors""","2","0.1","""wealth""","0.01","25","""exp utility""","100","16","24","123584.45539843144","0.82","7140.909988328084","0.030161593437762608"
"320","1","1","""neighbors""","2","0.1","""wealth""","0.01","25","""exp utility""","100","16","24","112778.64717869578","0.68","6586.480129992187","0.02872407378563401"
"322","1","1","""neighbors""","2","0.1","""wealth""","0.01","25","""exp utility""","100","17","24","126941.82946958375","0.84","7200.967891672951","0.029739028705631373"
"318","1","1","""neighbors""","2","0.1","""wealth""","0.01","25","""exp utility""","100","16","24","124019.80630061684","0.83","7186.896049382559","0.030846468258649406"
"323","1","1","""neighbors""","2","0.1","""wealth""","0.01","25","""exp utility""","100","17","24","129663.99734881305","0.78","6768.400709154449","0.029354310081494295"
"328","1","1","""neighbors""","2","0.1","""wealth""","0.01","25","""exp utility""","100","17","24","132179.32255005345","0.66","7009.591888989572","0.029477858095328307"
"321","1","1","""neighbors""","2","0.1","""wealth""","0.01","25","""exp utility""","100","17","24","126093.71063747145","0.75","6725.6918372754135","0.030635899812316916"
"325","1","1","""neighbors""","2","0.1","""wealth""","0.01","25","""exp utility""","100","17","24","128466.62411325933","0.73","6800.887223846076","0.029531850251637445"
"311","1","1","""neighbors""","2","0.1","""wealth""","0.01","25","""exp utility""","100","16","24","121266.33279703172","0.77","6762.184641188116","0.03168937173155068"
"331","1","1","""neighbors""","2","0.1","""wealth""","0.01","25","""exp utility""","100","17","24","106536.60201661111","0.92","6635.517448962604","0.02855977923763932"
"327","1","1","""neighbors""","2","0.1","""wealth""","0.01","25","""exp utility""","100","17","24","125210.99486397399","0.71","6920.586539763874","0.027752459397488667"
"333","1","1","""neighbors""","2","0.1","""wealth""","0.01","25","""exp utility""","100","17","24","115883.5196238458","0.8","6504.135906828649","0.03045634288311981"
"324","1","1","""neighbors""","2","0.1","""wealth""","0.01","25","""exp utility""","100","17","24","116460.9240301829","0.75","6461.1048619719095","0.028048635227378837"
"332","1","1","""neighbors""","2","0.1","""wealth""","0.01","25","""exp utility""","100","17","24","110700.96407499931","0.88","7032.329129834891","0.03139250890749297"
"326","1","1","""neighbors""","2","0.1","""wealth""","0.01","25","""exp utility""","100","17","24","120318.78619583529","0.96","7177.59594020153","0.031393673857503995"
"334","1","1","""neighbors""","2","0.1","""wealth""","0.01","25","""exp utility""","100","17","24","113201.71872417402","0.92","6666.5448957542585","0.028807696355998388"
"329","1","1","""neighbors""","2","0.1","""wealth""","0.01","25","""exp utility""","100","17","24","115822.87829583492","0.85","6745.317264686729","0.029550276885633307"
"337","1","1","""neighbors""","2","0.1","""wealth""","0.01","25","""exp utility""","100","17","24","123864.97658322683","0.72","6880.4575098668465","0.02939296216709033"
"336","1","1","""neighbors""","2","0.1","""wealth""","0.01","25","""exp utility""","100","17","24","108443.67840793576","0.78","6642.821941047217","0.028363222199986243"
"335","1","1","""neighbors""","2","0.1","""wealth""","0.01","25","""exp utility""","100","17","24","126556.37866411664","0.83","7180.770715180355","0.02921609052490518"
"317","1","1","""neighbors""","2","0.1","""wealth""","0.01","25","""exp utility""","100","16","24","119591.55681251794","0.89","6821.1780188249695","0.027737231228537627"
"339","1","1","""neighbors""","2","0.1","""wealth""","0.01","25","""exp utility""","100","17","24","119310.07383359235","0.83","6884.307736177867","0.031552516435594764"
"330","1","1","""neighbors""","2","0.1","""wealth""","0.01","25","""exp utility""","100","17","24","103763.72105923436","0.91","6335.831153657691","0.03229857418689838"
"338","1","1","""neighbors""","2","0.1","""wealth""","0.01","25","""exp utility""","100","17","24","126592.46066420933","0.62","6567.381534793189","0.027071227920394896"
"340","1","1","""neighbors""","2","0.1","""wealth""","0.01","25","""exp utility""","100","17","24","119028.36977218809","0.9","7195.011729737664","0.03377496299493696"
"344","1","1","""neighbors""","2","0.1","""wealth""","0.01","25","""exp utility""","100","18","24","124212.93247256466","0.71","6859.300542936173","0.031325912459720336"
"346","1","1","""neighbors""","2","0.1","""wealth""","0.01","25","""exp utility""","100","18","24","115635.5632030266","0.78","6790.694339184276","0.03193249334540229"
"341","1","1","""neighbors""","2","0.1","""wealth""","0.01","25","""exp utility""","100","18","24","119701.57195601305","0.72","6525.48502992425","0.027263053348994027"
"348","1","1","""neighbors""","2","0.1","""wealth""","0.01","25","""exp utility""","100","18","24","124512.02681998123","0.71","6901.614272544732","0.026870366992989198"
"342","1","1","""neighbors""","2","0.1","""wealth""","0.01","25","""exp utility""","100","18","24","108850.80625809166","0.85","6747.0556512925905","0.032295589580144474"
"350","1","1","""neighbors""","2","0.1","""wealth""","0.01","25","""exp utility""","100","18","24","138840.93204526074","0.63","6801.186074011538","0.0273364578381013"
"345","1","1","""neighbors""","2","0.1","""wealth""","0.01","25","""exp utility""","100","18","24","110508.16652205942","0.84","6740.562892860076","0.030781540543441763"
"145","1","1","""neighbors""","2","0.1","""wealth""","0.01","25","""exp utility""","100","8","24","131299.1401315333","0.81","7136.127603767403","0.03315956327817141"
"352","1","1","""neighbors""","2","0.1","""wealth""","0.01","25","""exp utility""","100","18","24","121727.54789239509","0.83","7115.6971880563415","0.02841185549645686"
"353","1","1","""neighbors""","2","0.1","""wealth""","0.01","25","""exp utility""","100","18","24","139733.27387181722","0.59","7022.71906597362","0.027695259020761268"
"349","1","1","""neighbors""","2","0.1","""wealth""","0.01","25","""exp utility""","100","18","24","115449.38083176388","0.81","6736.501545602532","0.028558222736726157"
"356","1","1","""neighbors""","2","0.1","""wealth""","0.01","25","""exp utility""","100","18","24","124331.92637464864","0.8","6622.889519275932","0.030514837439571493"
"347","1","1","""neighbors""","2","0.1","""wealth""","0.01","25","""exp utility""","100","18","24","112147.05907369929","0.83","6401.757486124457","0.02727512243696436"
"354","1","1","""neighbors""","2","0.1","""wealth""","0.01","25","""exp utility""","100","18","24","126550.12734115883","0.74","6889.753883185394","0.028315895791914323"
"359","1","1","""neighbors""","2","0.1","""wealth""","0.01","25","""exp utility""","100","18","24","115255.6992629243","0.94","6561.207259580255","0.02957521121820367"
"360","1","1","""neighbors""","2","0.1","""wealth""","0.01","25","""exp utility""","100","18","24","129774.38084476153","0.85","7184.887491975382","0.03046804177950605"
"358","1","1","""neighbors""","2","0.1","""wealth""","0.01","25","""exp utility""","100","18","24","127232.63004345278","0.7","7189.7919491614775","0.030501956707248746"
"361","1","1","""neighbors""","2","0.1","""wealth""","0.01","25","""exp utility""","100","19","24","127114.4227732553","0.74","6949.225708619517","0.025848998699049"
"343","1","1","""neighbors""","2","0.1","""wealth""","0.01","25","""exp utility""","100","18","24","125623.83431917662","0.79","6937.768428743688","0.03192647231179851"
"363","1","1","""neighbors""","2","0.1","""wealth""","0.01","25","""exp utility""","100","19","24","118400.96370000325","0.87","6939.447119846733","0.03160756181961077"
"357","1","1","""neighbors""","2","0.1","""wealth""","0.01","25","""exp utility""","100","18","24","122752.30221190782","0.9","7068.353369139375","0.031659755121467494"
"355","1","1","""neighbors""","2","0.1","""wealth""","0.01","25","""exp utility""","100","18","24","110261.49666553055","1.11","6831.736784798464","0.032683388129686346"
"362","1","1","""neighbors""","2","0.1","""wealth""","0.01","25","""exp utility""","100","19","24","126094.86315037662","0.77","6841.866437884288","0.028164521218140642"
"365","1","1","""neighbors""","2","0.1","""wealth""","0.01","25","""exp utility""","100","19","24","132548.7218681999","0.6","6934.030204796192","0.031197036818955096"
"364","1","1","""neighbors""","2","0.1","""wealth""","0.01","25","""exp utility""","100","19","24","130873.88903940009","0.64","6910.519448194396","0.026626182145322468"
"366","1","1","""neighbors""","2","0.1","""wealth""","0.01","25","""exp utility""","100","19","24","124061.80734877303","0.7","6679.795625742666","0.027344349580406234"
"368","1","1","""neighbors""","2","0.1","""wealth""","0.01","25","""exp utility""","100","19","24","127255.24653631648","0.68","7082.9229574143565","0.028745930726854864"
"369","1","1","""neighbors""","2","0.1","""wealth""","0.01","25","""exp utility""","100","19","24","119934.14626352674","0.88","6550.777848079692","0.029716840597806535"
"370","1","1","""neighbors""","2","0.1","""wealth""","0.01","25","""exp utility""","100","19","24","129457.1243155952","0.68","6802.138855584174","0.028190133131135064"
"371","1","1","""neighbors""","2","0.1","""wealth""","0.01","25","""exp utility""","100","19","24","123826.64290662228","0.82","7207.899892326562","0.02943297460717103"
"351","1","1","""neighbors""","2","0.1","""wealth""","0.01","25","""exp utility""","100","18","24","135801.3311668859","0.49","7130.724870253734","0.026434588219450973"
"374","1","1","""neighbors""","2","0.1","""wealth""","0.01","25","""exp utility""","100","19","24","112914.45980602209","0.91","6964.463367025571","0.03101404751001757"
"375","1","1","""neighbors""","2","0.1","""wealth""","0.01","25","""exp utility""","100","19","24","110397.63424753177","0.75","6746.0454562567475","0.02589850205496816"
"377","1","1","""neighbors""","2","0.1","""wealth""","0.01","25","""exp utility""","100","19","24","116618.11538163813","0.8","7003.847578681265","0.030224581373425315"
"376","1","1","""neighbors""","2","0.1","""wealth""","0.01","25","""exp utility""","100","19","24","122794.25108489081","0.78","6986.260383818699","0.029844624517131827"
"380","1","1","""neighbors""","2","0.1","""wealth""","0.01","25","""exp utility""","100","19","24","137922.72978729152","0.66","7035.140796658707","0.02922623374899699"
"383","1","1","""neighbors""","2","0.1","""wealth""","0.01","25","""exp utility""","100","20","24","110857.7423660665","0.72","6371.068114749708","0.028628186981474804"
"386","1","1","""neighbors""","2","0.1","""wealth""","0.01","25","""exp utility""","100","20","24","126971.58220984152","0.75","6920.345620418815","0.03138303877939629"
"382","1","1","""neighbors""","2","0.1","""wealth""","0.01","25","""exp utility""","100","20","24","126379.71555002542","0.67","6715.146474956278","0.029426856881867202"
"387","1","1","""neighbors""","2","0.1","""wealth""","0.01","25","""exp utility""","100","20","24","118929.94631323841","0.74","6550.403304706751","0.029111115119106832"
"384","1","1","""neighbors""","2","0.1","""wealth""","0.01","25","""exp utility""","100","20","24","114852.23775043832","0.83","6723.30971014446","0.03005992537511572"
"373","1","1","""neighbors""","2","0.1","""wealth""","0.01","25","""exp utility""","100","19","24","126586.15859196414","0.85","6885.806071278893","0.030207285352490117"
"379","1","1","""neighbors""","2","0.1","""wealth""","0.01","25","""exp utility""","100","19","24","118879.37862444745","0.77","6818.891069788163","0.028094811442229223"
"385","1","1","""neighbors""","2","0.1","""wealth""","0.01","25","""exp utility""","100","20","24","111391.25055983382","0.75","6413.923641875934","0.028848932690940857"
"381","1","1","""neighbors""","2","0.1","""wealth""","0.01","25","""exp utility""","100","20","24","119772.66587202277","0.71","6753.533662725341","0.029553314331136695"
"389","1","1","""neighbors""","2","0.1","""wealth""","0.01","25","""exp utility""","100","20","24","125572.09115674821","0.69","7119.246957045236","0.027285478680556516"
"391","1","1","""neighbors""","2","0.1","""wealth""","0.01","25","""exp utility""","100","20","24","111342.2114523133","0.96","7297.556537945526","0.030768857619340357"
"372","1","1","""neighbors""","2","0.1","""wealth""","0.01","25","""exp utility""","100","19","24","123015.98813913431","0.82","6681.775548744281","0.029753282487155332"
"392","1","1","""neighbors""","2","0.1","""wealth""","0.01","25","""exp utility""","100","20","24","124605.40426443981","0.72","6553.050187982159","0.027233272264512706"
"388","1","1","""neighbors""","2","0.1","""wealth""","0.01","25","""exp utility""","100","20","24","122043.45714188088","0.95","7138.643930252609","0.03030874983265776"
"393","1","1","""neighbors""","2","0.1","""wealth""","0.01","25","""exp utility""","100","20","24","122317.05979988226","0.68","6801.479659871269","0.02821126122100798"
"395","1","1","""neighbors""","2","0.1","""wealth""","0.01","25","""exp utility""","100","20","24","122011.6167418464","0.67","6818.477400833092","0.029689947901388902"
"378","1","1","""neighbors""","2","0.1","""wealth""","0.01","25","""exp utility""","100","19","24","111732.21953309294","0.91","6846.027888973413","0.029231316913565408"
"396","1","1","""neighbors""","2","0.1","""wealth""","0.01","25","""exp utility""","100","20","24","103520.98170337178","0.98","6900.580591301817","0.02981556482202874"
"397","1","1","""neighbors""","2","0.1","""wealth""","0.01","25","""exp utility""","100","20","24","118361.79370933397","0.72","6811.712903526599","0.025698160296502053"
"399","1","1","""neighbors""","2","0.1","""wealth""","0.01","25","""exp utility""","100","20","24","125024.70266024367","0.76","7177.701390592669","0.028148615014432953"
"398","1","1","""neighbors""","2","0.1","""wealth""","0.01","25","""exp utility""","100","20","24","120747.86997737337","0.69","6737.192252035127","0.027497297678355796"
"400","1","1","""neighbors""","2","0.1","""wealth""","0.01","25","""exp utility""","100","20","24","116935.2019985961","0.75","6959.836794609072","0.02909490871368052"
"405","1","1","""neighbors""","2","0.1","""wealth""","0.01","25","""exp utility""","100","21","24","129563.2467723795","0.62","6615.567643965611","0.026649845126521868"
"401","1","1","""neighbors""","2","0.1","""wealth""","0.01","25","""exp utility""","100","21","24","131515.8064171775","0.71","6917.346505854223","0.028195212850947247"
"403","1","1","""neighbors""","2","0.1","""wealth""","0.01","25","""exp utility""","100","21","24","126446.86785398984","0.64","6694.605660733587","0.026924365469851073"
"394","1","1","""neighbors""","2","0.1","""wealth""","0.01","25","""exp utility""","100","20","24","126608.30753444643","0.84","6609.270212735319","0.029693534306869745"
"406","1","1","""neighbors""","2","0.1","""wealth""","0.01","25","""exp utility""","100","21","24","112338.79362877531","0.9","6609.925717800404","0.028074264233578353"
"408","1","1","""neighbors""","2","0.1","""wealth""","0.01","25","""exp utility""","100","21","24","123251.03085702166","0.7","6973.044563898588","0.028288019545001222"
"410","1","1","""neighbors""","2","0.1","""wealth""","0.01","25","""exp utility""","100","21","24","124781.70562245975","0.73","6786.31350685493","0.030429692256802806"
"411","1","1","""neighbors""","2","0.1","""wealth""","0.01","25","""exp utility""","100","21","24","129679.4660006008","0.73","7034.68250195028","0.030108954395105067"
"413","1","1","""neighbors""","2","0.1","""wealth""","0.01","25","""exp utility""","100","21","24","117065.04968778531","0.76","6611.329154789357","0.031544385542415794"
"409","1","1","""neighbors""","2","0.1","""wealth""","0.01","25","""exp utility""","100","21","24","118769.87750547465","0.81","6757.508509241898","0.03208573251534405"
"414","1","1","""neighbors""","2","0.1","""wealth""","0.01","25","""exp utility""","100","21","24","119335.51244769819","0.74","6489.29994971562","0.0297006124775284"
"415","1","1","""neighbors""","2","0.1","""wealth""","0.01","25","""exp utility""","100","21","24","130373.30497923214","0.51","6376.36012629188","0.02609245352491378"
"390","1","1","""neighbors""","2","0.1","""wealth""","0.01","25","""exp utility""","100","20","24","121898.47178609644","0.79","6720.793650884074","0.02840289667048105"
"404","1","1","""neighbors""","2","0.1","""wealth""","0.01","25","""exp utility""","100","21","24","119032.66053091384","0.67","6509.4766994228385","0.027057397092995084"
"407","1","1","""neighbors""","2","0.1","""wealth""","0.01","25","""exp utility""","100","21","24","132897.73106693823","0.65","6929.174987197903","0.02605815859546664"
"416","1","1","""neighbors""","2","0.1","""wealth""","0.01","25","""exp utility""","100","21","24","122445.66670415603","0.65","6211.398143998182","0.027971045202185234"
"418","1","1","""neighbors""","2","0.1","""wealth""","0.01","25","""exp utility""","100","21","24","112782.63824327748","0.86","6692.877083280639","0.02820537947057283"
"422","1","1","""neighbors""","2","0.1","""wealth""","0.01","25","""exp utility""","100","22","24","123253.98460355973","0.64","7046.447349358779","0.025968088618257147"
"402","1","1","""neighbors""","2","0.1","""wealth""","0.01","25","""exp utility""","100","21","24","120304.64148149402","0.82","7075.898967321941","0.028305764004954114"
"423","1","1","""neighbors""","2","0.1","""wealth""","0.01","25","""exp utility""","100","22","24","115803.39049500746","0.66","6413.960098595149","0.02865409000850548"
"417","1","1","""neighbors""","2","0.1","""wealth""","0.01","25","""exp utility""","100","21","24","136677.83440202454","0.67","7290.593493456367","0.029513776443962407"
"420","1","1","""neighbors""","2","0.1","""wealth""","0.01","25","""exp utility""","100","21","24","121710.78877976257","0.64","6701.528915467302","0.027528375449079788"
"419","1","1","""neighbors""","2","0.1","""wealth""","0.01","25","""exp utility""","100","21","24","121488.18146711715","0.64","6698.770634703412","0.028020387339098854"
"412","1","1","""neighbors""","2","0.1","""wealth""","0.01","25","""exp utility""","100","21","24","125190.87760345366","0.65","6869.471870755119","0.02667337949057035"
"421","1","1","""neighbors""","2","0.1","""wealth""","0.01","25","""exp utility""","100","22","24","109777.11453212197","0.74","6435.818599189259","0.02679698373762083"
"424","1","1","""neighbors""","2","0.1","""wealth""","0.01","25","""exp utility""","100","22","24","115759.9922751093","0.74","6400.301539412123","0.030036510038010885"
"425","1","1","""neighbors""","2","0.1","""wealth""","0.01","25","""exp utility""","100","22","24","123005.21672594249","0.74","6433.7982073674975","0.02612746112591152"
"426","1","1","""neighbors""","2","0.1","""wealth""","0.01","25","""exp utility""","100","22","24","124167.01891626373","0.71","6925.718443951399","0.023994782283281394"
"428","1","1","""neighbors""","2","0.1","""wealth""","0.01","25","""exp utility""","100","22","24","121367.28714153552","0.69","6765.121719261934","0.026709031764949022"
"427","1","1","""neighbors""","2","0.1","""wealth""","0.01","25","""exp utility""","100","22","24","121759.4105447856","0.76","6700.103754190037","0.029585872710997538"
"429","1","1","""neighbors""","2","0.1","""wealth""","0.01","25","""exp utility""","100","22","24","125730.2928467198","0.65","6717.10326166597","0.028583785403842613"
"434","1","1","""neighbors""","2","0.1","""wealth""","0.01","25","""exp utility""","100","22","24","116154.12855401437","0.85","6879.1680297316525","0.029532133969600638"
"435","1","1","""neighbors""","2","0.1","""wealth""","0.01","25","""exp utility""","100","22","24","124940.0755110125","0.71","7066.989213150037","0.02649289940490567"
"437","1","1","""neighbors""","2","0.1","""wealth""","0.01","25","""exp utility""","100","22","24","112466.87988064328","0.77","6404.802606205528","0.029024252006531276"
"433","1","1","""neighbors""","2","0.1","""wealth""","0.01","25","""exp utility""","100","22","24","113124.90104293251","0.89","6937.535268524458","0.030958230717917617"
"430","1","1","""neighbors""","2","0.1","""wealth""","0.01","25","""exp utility""","100","22","24","117971.0173110751","0.71","6215.11708368629","0.030509264507637218"
"439","1","1","""neighbors""","2","0.1","""wealth""","0.01","25","""exp utility""","100","22","24","130010.29742534141","0.75","7106.767746061028","0.028985725005515276"
"443","1","1","""neighbors""","2","0.1","""wealth""","0.01","25","""exp utility""","100","23","24","116434.02020119685","0.83","7043.693029937924","0.028698692017788754"
"438","1","1","""neighbors""","2","0.1","""wealth""","0.01","25","""exp utility""","100","22","24","118226.46312853968","0.79","6584.962003771137","0.02839461242999262"
"432","1","1","""neighbors""","2","0.1","""wealth""","0.01","25","""exp utility""","100","22","24","108535.23593372424","0.97","6661.147143507105","0.028022871589237507"
"440","1","1","""neighbors""","2","0.1","""wealth""","0.01","25","""exp utility""","100","22","24","118524.33337889481","0.88","6730.336930246609","0.02988295491346853"
"445","1","1","""neighbors""","2","0.1","""wealth""","0.01","25","""exp utility""","100","23","24","115160.21772683201","0.81","6969.91145039036","0.028442872247963116"
"444","1","1","""neighbors""","2","0.1","""wealth""","0.01","25","""exp utility""","100","23","24","123172.20250464903","0.63","6812.91021589744","0.026067991877522262"
"442","1","1","""neighbors""","2","0.1","""wealth""","0.01","25","""exp utility""","100","23","24","119833.34271268095","0.74","6663.55147456373","0.026462654693874703"
"431","1","1","""neighbors""","2","0.1","""wealth""","0.01","25","""exp utility""","100","22","24","105695.9664461719","1.03","6399.173485212019","0.029478597635396075"
"436","1","1","""neighbors""","2","0.1","""wealth""","0.01","25","""exp utility""","100","22","24","127157.0531941312","0.8","6928.665437784877","0.027802623184156505"
"446","1","1","""neighbors""","2","0.1","""wealth""","0.01","25","""exp utility""","100","23","24","119188.69749278305","0.87","6448.118721199118","0.030686847229429378"
"441","1","1","""neighbors""","2","0.1","""wealth""","0.01","25","""exp utility""","100","23","24","122393.37472779183","0.75","7076.260778635427","0.028272638289390525"
"448","1","1","""neighbors""","2","0.1","""wealth""","0.01","25","""exp utility""","100","23","24","124061.33153420666","0.72","6664.727730591398","0.028319305647279913"
"447","1","1","""neighbors""","2","0.1","""wealth""","0.01","25","""exp utility""","100","23","24","117753.66406795848","0.81","6439.644474459145","0.02893546407352423"
"449","1","1","""neighbors""","2","0.1","""wealth""","0.01","25","""exp utility""","100","23","24","126701.27381607177","0.88","6599.775765873799","0.026852743334556374"
"450","1","1","""neighbors""","2","0.1","""wealth""","0.01","25","""exp utility""","100","23","24","132004.97817787598","0.62","6921.881082579485","0.026096740696880127"
"451","1","1","""neighbors""","2","0.1","""wealth""","0.01","25","""exp utility""","100","23","24","129737.55531001594","0.7","6450.517375957028","0.02866635543715637"
"452","1","1","""neighbors""","2","0.1","""wealth""","0.01","25","""exp utility""","100","23","24","126750.69118711812","0.71","6809.950797661448","0.027401526634567824"
"455","1","1","""neighbors""","2","0.1","""wealth""","0.01","25","""exp utility""","100","23","24","110259.11610344706","0.84","6338.958276061978","0.030804413423161738"
"454","1","1","""neighbors""","2","0.1","""wealth""","0.01","25","""exp utility""","100","23","24","115755.98569287141","0.76","6368.568217615643","0.029269670163728456"
"456","1","1","""neighbors""","2","0.1","""wealth""","0.01","25","""exp utility""","100","23","24","106560.02524173107","0.83","6465.367304837429","0.030054178400973113"
"458","1","1","""neighbors""","2","0.1","""wealth""","0.01","25","""exp utility""","100","23","24","115237.41891334832","0.82","6684.0522849797235","0.029680241939370803"
"459","1","1","""neighbors""","2","0.1","""wealth""","0.01","25","""exp utility""","100","23","24","115024.59078588588","0.76","6613.284624242977","0.030392164310629056"
"460","1","1","""neighbors""","2","0.1","""wealth""","0.01","25","""exp utility""","100","23","24","122720.42905083095","0.69","6487.921183553789","0.028135809363418272"
"461","1","1","""neighbors""","2","0.1","""wealth""","0.01","25","""exp utility""","100","24","24","126900.9841442617","0.67","6774.04767755796","0.02658870417578149"
"453","1","1","""neighbors""","2","0.1","""wealth""","0.01","25","""exp utility""","100","23","24","128104.28161463176","0.79","6817.296592514316","0.02886555713269001"
"462","1","1","""neighbors""","2","0.1","""wealth""","0.01","25","""exp utility""","100","24","24","135107.6769684473","0.55","6783.068860992929","0.026830318434593662"
"464","1","1","""neighbors""","2","0.1","""wealth""","0.01","25","""exp utility""","100","24","24","113917.92808693847","0.7","6484.540332479896","0.028957003699310112"
"457","1","1","""neighbors""","2","0.1","""wealth""","0.01","25","""exp utility""","100","23","24","116018.33817874297","0.81","6623.875885627214","0.029242589827511215"
"466","1","1","""neighbors""","2","0.1","""wealth""","0.01","25","""exp utility""","100","24","24","120594.18394821018","0.79","6761.943083556427","0.029073553124330367"
"467","1","1","""neighbors""","2","0.1","""wealth""","0.01","25","""exp utility""","100","24","24","107228.28353088157","0.77","6342.000295313336","0.026854106587504218"
"463","1","1","""neighbors""","2","0.1","""wealth""","0.01","25","""exp utility""","100","24","24","118965.0884130742","0.71","6872.952876033595","0.02815159675046032"
"468","1","1","""neighbors""","2","0.1","""wealth""","0.01","25","""exp utility""","100","24","24","122438.83470455665","0.77","6525.42976469054","0.028015155192279265"
"465","1","1","""neighbors""","2","0.1","""wealth""","0.01","25","""exp utility""","100","24","24","119086.10957082572","0.77","6752.399757968566","0.02825595084119155"
"469","1","1","""neighbors""","2","0.1","""wealth""","0.01","25","""exp utility""","100","24","24","121367.65939924092","0.71","6814.03542727991","0.029060165367203714"
"470","1","1","""neighbors""","2","0.1","""wealth""","0.01","25","""exp utility""","100","24","24","117231.82373705745","0.83","6755.2678229043","0.0274267634459588"
"471","1","1","""neighbors""","2","0.1","""wealth""","0.01","25","""exp utility""","100","24","24","125527.90328717379","0.59","6355.23077099641","0.028066462199637102"
"472","1","1","""neighbors""","2","0.1","""wealth""","0.01","25","""exp utility""","100","24","24","117436.69061850065","0.8","6375.077993853605","0.029946108441940556"
"473","1","1","""neighbors""","2","0.1","""wealth""","0.01","25","""exp utility""","100","24","24","133915.40183034475","0.6","6810.986880409689","0.028235389880969124"
"476","1","1","""neighbors""","2","0.1","""wealth""","0.01","25","""exp utility""","100","24","24","123776.45344970409","0.78","6734.0251097097935","0.029621975166687534"
"477","1","1","""neighbors""","2","0.1","""wealth""","0.01","25","""exp utility""","100","24","24","127409.03222688811","0.73","6785.997832085043","0.028635711330318"
"474","1","1","""neighbors""","2","0.1","""wealth""","0.01","25","""exp utility""","100","24","24","104456.14188313011","0.93","6450.161178506172","0.029327043284502783"
"478","1","1","""neighbors""","2","0.1","""wealth""","0.01","25","""exp utility""","100","24","24","127231.82997110937","0.64","6853.337675242495","0.028684090805088203"
"481","1","1","""neighbors""","2","0.1","""wealth""","0.01","25","""exp utility""","100","25","24","116037.81426087944","0.81","6416.810727745481","0.029348798939906353"
"475","1","1","""neighbors""","2","0.1","""wealth""","0.01","25","""exp utility""","100","24","24","122736.43986211764","0.59","6213.555999540429","0.025177859549995435"
"479","1","1","""neighbors""","2","0.1","""wealth""","0.01","25","""exp utility""","100","24","24","117690.0610730098","0.74","6721.608157578636","0.028488622696140577"
"483","1","1","""neighbors""","2","0.1","""wealth""","0.01","25","""exp utility""","100","25","24","115119.17866825133","0.9","6579.762826548735","0.028538317224317784"
"480","1","1","""neighbors""","2","0.1","""wealth""","0.01","25","""exp utility""","100","24","24","106458.17909468545","0.97","6620.312104895653","0.028963494590321805"
"486","1","1","""neighbors""","2","0.1","""wealth""","0.01","25","""exp utility""","100","25","24","117607.64986953244","0.78","6676.664458634576","0.028691628604899936"
"485","1","1","""neighbors""","2","0.1","""wealth""","0.01","25","""exp utility""","100","25","24","121811.94032205701","0.62","6733.060118558667","0.029074854758145367"
"482","1","1","""neighbors""","2","0.1","""wealth""","0.01","25","""exp utility""","100","25","24","117794.08948782853","0.88","6630.953080599966","0.02828362236697148"
"488","1","1","""neighbors""","2","0.1","""wealth""","0.01","25","""exp utility""","100","25","24","112022.00818707017","0.72","6312.014030641543","0.027885298184133555"
"484","1","1","""neighbors""","2","0.1","""wealth""","0.01","25","""exp utility""","100","25","24","115270.06781670231","0.72","6531.498152305884","0.030187504953807683"
"489","1","1","""neighbors""","2","0.1","""wealth""","0.01","25","""exp utility""","100","25","24","121090.89171833545","0.79","6852.564164883144","0.029074039823912753"
"490","1","1","""neighbors""","2","0.1","""wealth""","0.01","25","""exp utility""","100","25","24","116969.4817106303","0.73","6743.512889218321","0.02738291597975996"
"491","1","1","""neighbors""","2","0.1","""wealth""","0.01","25","""exp utility""","100","25","24","117402.34688398406","0.64","6406.1946515590425","0.026930440194746698"
"487","1","1","""neighbors""","2","0.1","""wealth""","0.01","25","""exp utility""","100","25","24","121130.66305407154","0.88","6963.109465369053","0.02969758056216877"
"493","1","1","""neighbors""","2","0.1","""wealth""","0.01","25","""exp utility""","100","25","24","122850.64972650124","0.8","6608.911305744579","0.02683111805702751"
"492","1","1","""neighbors""","2","0.1","""wealth""","0.01","25","""exp utility""","100","25","24","125512.86744798359","0.75","6880.646373403717","0.027506912293846702"
"494","1","1","""neighbors""","2","0.1","""wealth""","0.01","25","""exp utility""","100","25","24","120650.94713369828","0.67","6365.01019309293","0.02754446932914217"
"495","1","1","""neighbors""","2","0.1","""wealth""","0.01","25","""exp utility""","100","25","24","110067.46245038854","0.87","6490.886040493498","0.03084758558587052"
"496","1","1","""neighbors""","2","0.1","""wealth""","0.01","25","""exp utility""","100","25","24","118478.1725109718","0.69","6671.167028847625","0.026542593830573124"
"498","1","1","""neighbors""","2","0.1","""wealth""","0.01","25","""exp utility""","100","25","24","117542.85973643146","0.85","6859.615121311479","0.03040962627085545"
"497","1","1","""neighbors""","2","0.1","""wealth""","0.01","25","""exp utility""","100","25","24","111185.88761328447","0.77","6448.099512407402","0.02808497448469592"
"500","1","1","""neighbors""","2","0.1","""wealth""","0.01","25","""exp utility""","100","25","24","126464.5754547604","0.81","6832.9151746102025","0.026895264450144386"
"499","1","1","""neighbors""","2","0.1","""wealth""","0.01","25","""exp utility""","100","25","24","121233.37653877468","0.64","6964.3093128859055","0.028869819352327845"
"367","1","1","""neighbors""","2","0.1","""wealth""","0.01","25","""exp utility""","100","19","24","126566.36874046604","0.68","6789.613931843709","0.027287406729420042"
